# Blender v2.79 (sub 0) OBJ File: ''
# www.blender.org
mtllib Crate.mtl
o Cube.001_Cube.012
v -0.783952 -0.972279 0.959615
v -0.783952 -0.972279 0.779779
v -0.783952 -0.920823 0.779779
v -0.783952 -0.920823 0.959615
v 0.781641 -0.972279 0.779779
v 0.781641 -0.920824 0.779779
v 0.781641 -0.972279 0.959615
v 0.781641 -0.920825 0.959615
v 0.974729 -0.972279 0.959509
v 0.794891 -0.972279 0.959509
v 0.794891 -0.920823 0.959509
v 0.974729 -0.920823 0.959509
v 0.794891 -0.972278 -0.959467
v 0.794891 -0.920824 -0.959467
v 0.974728 -0.972278 -0.959467
v 0.974728 -0.920824 -0.959467
v -0.791376 -0.972279 0.959509
v -0.971214 -0.972279 0.959509
v -0.971214 -0.920823 0.959509
v -0.791376 -0.920823 0.959509
v -0.971214 -0.972278 -0.959467
v -0.971214 -0.920823 -0.959467
v -0.791378 -0.972278 -0.959467
v -0.791378 -0.920823 -0.959467
v -0.783952 -0.972278 -0.780216
v -0.783952 -0.972278 -0.960054
v -0.783952 -0.920823 -0.960054
v -0.783952 -0.920823 -0.780216
v 0.781640 -0.972278 -0.960054
v 0.781640 -0.920824 -0.960054
v 0.781640 -0.972278 -0.780216
v 0.781640 -0.920824 -0.780216
v -0.781183 -0.922092 -0.771540
v -0.601345 -0.922092 -0.771540
v -0.601345 -0.870637 -0.771540
v -0.781183 -0.870637 -0.771540
v -0.601345 -0.922093 0.770698
v -0.601345 -0.870637 0.770698
v -0.781183 -0.922093 0.770698
v -0.781183 -0.870637 0.770698
v -0.583362 -0.922092 -0.771540
v -0.403524 -0.922092 -0.771540
v -0.403524 -0.870637 -0.771540
v -0.583362 -0.870637 -0.771540
v -0.403524 -0.922093 0.770698
v -0.403524 -0.870637 0.770698
v -0.583362 -0.922093 0.770698
v -0.583362 -0.870637 0.770698
v -0.385540 -0.922092 -0.771540
v -0.205703 -0.922092 -0.771540
v -0.205703 -0.870637 -0.771540
v -0.385540 -0.870637 -0.771540
v -0.205703 -0.922093 0.770698
v -0.205703 -0.870637 0.770698
v -0.385540 -0.922093 0.770698
v -0.385540 -0.870637 0.770698
v -0.187719 -0.922092 -0.771540
v -0.007881 -0.922092 -0.771540
v -0.007881 -0.870637 -0.771540
v -0.187719 -0.870637 -0.771540
v -0.007881 -0.922093 0.770698
v -0.007881 -0.870637 0.770698
v -0.187719 -0.922093 0.770698
v -0.187719 -0.870637 0.770698
v 0.010102 -0.922092 -0.771540
v 0.189940 -0.922092 -0.771540
v 0.189940 -0.870637 -0.771540
v 0.010102 -0.870637 -0.771540
v 0.189940 -0.922093 0.770698
v 0.189940 -0.870637 0.770698
v 0.010102 -0.922093 0.770698
v 0.010102 -0.870637 0.770698
v 0.207923 -0.922092 -0.771540
v 0.387761 -0.922092 -0.771540
v 0.387761 -0.870637 -0.771540
v 0.207923 -0.870637 -0.771540
v 0.387761 -0.922093 0.770698
v 0.387761 -0.870637 0.770698
v 0.207923 -0.922093 0.770698
v 0.207923 -0.870637 0.770698
v 0.405744 -0.922092 -0.771540
v 0.585582 -0.922092 -0.771540
v 0.585582 -0.870637 -0.771540
v 0.405744 -0.870637 -0.771540
v 0.585582 -0.922093 0.770698
v 0.585582 -0.870637 0.770698
v 0.405744 -0.922093 0.770698
v 0.405744 -0.870637 0.770698
v 0.603565 -0.922092 -0.771540
v 0.783403 -0.922092 -0.771540
v 0.783403 -0.870638 -0.771540
v 0.603565 -0.870637 -0.771540
v 0.783403 -0.922093 0.770698
v 0.783403 -0.870639 0.770698
v 0.603565 -0.922093 0.770698
v 0.603565 -0.870637 0.770698
v -0.783952 0.971480 0.959616
v -0.783952 0.971480 0.779779
v -0.783952 0.920025 0.779779
v -0.783952 0.920025 0.959616
v 0.781641 0.971480 0.779779
v 0.781641 0.920025 0.779779
v 0.781641 0.971480 0.959616
v 0.781641 0.920025 0.959616
v 0.974729 0.971479 0.959509
v 0.794891 0.971479 0.959509
v 0.794891 0.920025 0.959509
v 0.974729 0.920025 0.959509
v 0.794891 0.971480 -0.959466
v 0.794891 0.920025 -0.959466
v 0.974728 0.971480 -0.959466
v 0.974728 0.920025 -0.959466
v -0.791376 0.971479 0.959509
v -0.971214 0.971479 0.959509
v -0.971214 0.920025 0.959509
v -0.791376 0.920025 0.959509
v -0.971214 0.971480 -0.959466
v -0.971214 0.920025 -0.959466
v -0.791378 0.971480 -0.959466
v -0.791378 0.920025 -0.959466
v -0.783952 0.971480 -0.780216
v -0.783952 0.971480 -0.960054
v -0.783952 0.920025 -0.960054
v -0.783952 0.920025 -0.780216
v 0.781640 0.971480 -0.960054
v 0.781640 0.920025 -0.960054
v 0.781640 0.971480 -0.780216
v 0.781640 0.920025 -0.780216
v -0.781183 0.921294 -0.771540
v -0.601345 0.921294 -0.771540
v -0.601345 0.869839 -0.771540
v -0.781183 0.869839 -0.771540
v -0.601345 0.921294 0.770698
v -0.601345 0.869839 0.770698
v -0.781183 0.921294 0.770698
v -0.781183 0.869839 0.770698
v -0.583362 0.921294 -0.771540
v -0.403524 0.921294 -0.771540
v -0.403524 0.869839 -0.771540
v -0.583362 0.869839 -0.771540
v -0.403524 0.921294 0.770698
v -0.403524 0.869839 0.770698
v -0.583362 0.921294 0.770698
v -0.583362 0.869839 0.770698
v -0.385540 0.921294 -0.771540
v -0.205703 0.921294 -0.771540
v -0.205703 0.869839 -0.771540
v -0.385540 0.869839 -0.771540
v -0.205703 0.921294 0.770698
v -0.205703 0.869839 0.770698
v -0.385540 0.921294 0.770698
v -0.385540 0.869839 0.770698
v -0.187719 0.921294 -0.771540
v -0.007881 0.921294 -0.771540
v -0.007881 0.869839 -0.771540
v -0.187719 0.869839 -0.771540
v -0.007881 0.921294 0.770698
v -0.007881 0.869839 0.770698
v -0.187719 0.921294 0.770698
v -0.187719 0.869839 0.770698
v 0.010102 0.921294 -0.771540
v 0.189940 0.921294 -0.771540
v 0.189940 0.869839 -0.771540
v 0.010102 0.869839 -0.771540
v 0.189940 0.921294 0.770698
v 0.189940 0.869839 0.770698
v 0.010102 0.921294 0.770698
v 0.010102 0.869839 0.770698
v 0.207923 0.921294 -0.771540
v 0.387761 0.921294 -0.771540
v 0.387761 0.869839 -0.771540
v 0.207923 0.869839 -0.771540
v 0.387761 0.921294 0.770698
v 0.387761 0.869839 0.770698
v 0.207923 0.921294 0.770698
v 0.207923 0.869839 0.770698
v 0.405744 0.921294 -0.771540
v 0.585582 0.921294 -0.771540
v 0.585582 0.869839 -0.771540
v 0.405744 0.869839 -0.771540
v 0.585582 0.921294 0.770698
v 0.585582 0.869839 0.770698
v 0.405744 0.921294 0.770698
v 0.405744 0.869839 0.770698
v 0.603565 0.921294 -0.771540
v 0.783403 0.921294 -0.771540
v 0.783403 0.869839 -0.771540
v 0.603565 0.869839 -0.771540
v 0.783403 0.921294 0.770698
v 0.783403 0.869839 0.770698
v 0.603565 0.921294 0.770698
v 0.603565 0.869839 0.770698
v -0.982369 -0.923350 -0.783643
v -0.982369 -0.750329 -0.783643
v -0.931495 -0.750329 -0.783643
v -0.931495 -0.923350 -0.783643
v -0.982369 -0.750329 0.722610
v -0.931495 -0.750329 0.722610
v -0.982369 -0.923350 0.722610
v -0.931495 -0.923350 0.722610
v -0.982369 -0.923248 0.908380
v -0.982369 -0.923248 0.735358
v -0.931495 -0.923248 0.735358
v -0.931495 -0.923248 0.908380
v -0.982369 0.922995 0.735359
v -0.931495 0.922995 0.735359
v -0.982369 0.922995 0.908380
v -0.931495 0.922995 0.908380
v -0.982369 -0.923248 -0.790787
v -0.982369 -0.923248 -0.963808
v -0.931495 -0.923248 -0.963808
v -0.931495 -0.923248 -0.790787
v -0.982369 0.922995 -0.963808
v -0.931495 0.922995 -0.963808
v -0.982369 0.922995 -0.790786
v -0.931495 0.922995 -0.790786
v -0.982369 0.750539 -0.783642
v -0.982369 0.923561 -0.783642
v -0.931495 0.923561 -0.783642
v -0.931495 0.750539 -0.783642
v -0.982369 0.923560 0.722611
v -0.931495 0.923560 0.722611
v -0.982369 0.750539 0.722610
v -0.931495 0.750539 0.722610
v -0.932750 0.742192 -0.780977
v -0.932750 0.742192 -0.607956
v -0.881875 0.742192 -0.607956
v -0.881875 0.742192 -0.780977
v -0.932750 -0.741593 -0.607956
v -0.881875 -0.741593 -0.607956
v -0.932750 -0.741593 -0.780978
v -0.881875 -0.741593 -0.780978
v -0.932750 0.742192 -0.590655
v -0.932750 0.742192 -0.417634
v -0.881875 0.742192 -0.417634
v -0.881875 0.742192 -0.590655
v -0.932750 -0.741593 -0.417634
v -0.881875 -0.741593 -0.417634
v -0.932750 -0.741593 -0.590655
v -0.881875 -0.741593 -0.590655
v -0.932750 0.742192 -0.400331
v -0.932750 0.742192 -0.227310
v -0.881875 0.742192 -0.227310
v -0.881875 0.742192 -0.400331
v -0.932750 -0.741593 -0.227310
v -0.881875 -0.741593 -0.227310
v -0.932750 -0.741593 -0.400331
v -0.881875 -0.741593 -0.400331
v -0.932750 0.742192 -0.210007
v -0.932750 0.742192 -0.036986
v -0.881875 0.742192 -0.036986
v -0.881875 0.742192 -0.210007
v -0.932750 -0.741593 -0.036986
v -0.881875 -0.741593 -0.036986
v -0.932750 -0.741593 -0.210008
v -0.881875 -0.741593 -0.210008
v -0.932750 0.742192 -0.019684
v -0.932750 0.742192 0.153338
v -0.881875 0.742192 0.153338
v -0.881875 0.742192 -0.019684
v -0.932750 -0.741593 0.153337
v -0.881875 -0.741593 0.153337
v -0.932750 -0.741593 -0.019684
v -0.881875 -0.741593 -0.019684
v -0.932750 0.742192 0.170639
v -0.932750 0.742192 0.343660
v -0.881875 0.742192 0.343660
v -0.881875 0.742192 0.170639
v -0.932750 -0.741593 0.343660
v -0.881875 -0.741593 0.343660
v -0.932750 -0.741593 0.170639
v -0.881875 -0.741593 0.170639
v -0.932750 0.742192 0.360963
v -0.932750 0.742192 0.533984
v -0.881875 0.742192 0.533984
v -0.881875 0.742192 0.360963
v -0.932750 -0.741593 0.533983
v -0.881875 -0.741593 0.533983
v -0.932750 -0.741593 0.360962
v -0.881875 -0.741593 0.360962
v -0.932750 0.742192 0.551286
v -0.932750 0.742192 0.724307
v -0.881875 0.742192 0.724307
v -0.881875 0.742192 0.551286
v -0.932750 -0.741594 0.724307
v -0.881875 -0.741594 0.724307
v -0.932750 -0.741594 0.551286
v -0.881875 -0.741594 0.551286
v -0.767385 -0.923351 0.964092
v -0.767385 -0.750329 0.964092
v -0.767385 -0.750329 0.913219
v -0.767385 -0.923350 0.913219
v 0.738868 -0.750329 0.964093
v 0.738868 -0.750329 0.913219
v 0.738868 -0.923351 0.964093
v 0.738868 -0.923350 0.913219
v 0.924638 -0.923248 0.964092
v 0.751617 -0.923248 0.964092
v 0.751617 -0.923248 0.913219
v 0.924638 -0.923248 0.913219
v 0.751617 0.922995 0.964093
v 0.751617 0.922995 0.913219
v 0.924638 0.922995 0.964093
v 0.924638 0.922995 0.913219
v -0.774529 -0.923248 0.964092
v -0.947550 -0.923248 0.964092
v -0.947550 -0.923248 0.913219
v -0.774529 -0.923248 0.913219
v -0.947550 0.922995 0.964093
v -0.947550 0.922995 0.913219
v -0.774529 0.922995 0.964093
v -0.774529 0.922995 0.913219
v -0.767385 0.750539 0.964092
v -0.767385 0.923560 0.964092
v -0.767385 0.923560 0.913219
v -0.767385 0.750539 0.913219
v 0.738868 0.923560 0.964093
v 0.738868 0.923560 0.913219
v 0.738868 0.750539 0.964093
v 0.738868 0.750539 0.913219
v -0.764721 0.742192 0.914473
v -0.591700 0.742192 0.914473
v -0.591700 0.742192 0.863599
v -0.764721 0.742192 0.863599
v -0.591700 -0.741594 0.914474
v -0.591700 -0.741594 0.863599
v -0.764721 -0.741594 0.914473
v -0.764721 -0.741594 0.863599
v -0.574397 0.742192 0.914473
v -0.401376 0.742192 0.914473
v -0.401376 0.742192 0.863599
v -0.574397 0.742192 0.863599
v -0.401376 -0.741594 0.914474
v -0.401376 -0.741594 0.863599
v -0.574397 -0.741594 0.914474
v -0.574397 -0.741594 0.863599
v -0.384073 0.742192 0.914473
v -0.211052 0.742192 0.914473
v -0.211052 0.742192 0.863599
v -0.384073 0.742192 0.863599
v -0.211052 -0.741594 0.914473
v -0.211052 -0.741594 0.863599
v -0.384073 -0.741594 0.914474
v -0.384073 -0.741594 0.863599
v -0.193751 0.742192 0.914473
v -0.020730 0.742192 0.914473
v -0.020730 0.742192 0.863599
v -0.193751 0.742192 0.863599
v -0.020730 -0.741594 0.914473
v -0.020730 -0.741594 0.863599
v -0.193751 -0.741594 0.914473
v -0.193751 -0.741594 0.863599
v -0.003427 0.742192 0.914473
v 0.169594 0.742192 0.914473
v 0.169594 0.742192 0.863599
v -0.003427 0.742192 0.863599
v 0.169594 -0.741594 0.914474
v 0.169594 -0.741594 0.863599
v -0.003427 -0.741594 0.914473
v -0.003427 -0.741594 0.863599
v 0.186897 0.742192 0.914473
v 0.359918 0.742192 0.914473
v 0.359918 0.742192 0.863599
v 0.186897 0.742192 0.863599
v 0.359918 -0.741594 0.914473
v 0.359918 -0.741594 0.863599
v 0.186897 -0.741594 0.914474
v 0.186897 -0.741594 0.863599
v 0.377219 0.742192 0.914473
v 0.550240 0.742192 0.914473
v 0.550240 0.742192 0.863599
v 0.377219 0.742192 0.863599
v 0.550240 -0.741594 0.914473
v 0.550240 -0.741594 0.863599
v 0.377219 -0.741594 0.914473
v 0.377219 -0.741594 0.863599
v 0.567543 0.742192 0.914473
v 0.740564 0.742192 0.914473
v 0.740564 0.742192 0.863599
v 0.567543 0.742192 0.863599
v 0.740564 -0.741594 0.914474
v 0.740564 -0.741594 0.863599
v 0.567543 -0.741594 0.914473
v 0.567543 -0.741594 0.863599
v 0.766544 -0.923350 -0.963778
v 0.766544 -0.750329 -0.963778
v 0.766544 -0.750329 -0.912905
v 0.766544 -0.923350 -0.912905
v -0.739709 -0.750329 -0.963779
v -0.739709 -0.750329 -0.912905
v -0.739709 -0.923350 -0.963779
v -0.739709 -0.923350 -0.912905
v -0.925479 -0.923248 -0.963778
v -0.752456 -0.923248 -0.963779
v -0.752456 -0.923248 -0.912905
v -0.925479 -0.923248 -0.912905
v -0.752456 0.922995 -0.963779
v -0.752456 0.922995 -0.912905
v -0.925477 0.922995 -0.963779
v -0.925477 0.922995 -0.912905
v 0.773689 -0.923248 -0.963778
v 0.946710 -0.923248 -0.963778
v 0.946710 -0.923248 -0.912905
v 0.773689 -0.923248 -0.912905
v 0.946710 0.922995 -0.963779
v 0.946710 0.922995 -0.912905
v 0.773689 0.922995 -0.963779
v 0.773689 0.922995 -0.912905
v 0.766544 0.750539 -0.963778
v 0.766544 0.923561 -0.963778
v 0.766544 0.923561 -0.912905
v 0.766544 0.750539 -0.912905
v -0.739709 0.923561 -0.963779
v -0.739709 0.923561 -0.912905
v -0.739709 0.750539 -0.963779
v -0.739709 0.750539 -0.912905
v 0.763880 0.742192 -0.914158
v 0.590859 0.742192 -0.914158
v 0.590859 0.742192 -0.863285
v 0.763880 0.742192 -0.863285
v 0.590859 -0.741593 -0.914160
v 0.590859 -0.741593 -0.863285
v 0.763880 -0.741593 -0.914160
v 0.763880 -0.741593 -0.863285
v 0.573556 0.742192 -0.914158
v 0.400535 0.742192 -0.914160
v 0.400535 0.742192 -0.863285
v 0.573556 0.742192 -0.863285
v 0.400535 -0.741593 -0.914160
v 0.400535 -0.741593 -0.863285
v 0.573556 -0.741593 -0.914160
v 0.573556 -0.741593 -0.863285
v 0.383234 0.742192 -0.914160
v 0.210213 0.742192 -0.914158
v 0.210213 0.742192 -0.863285
v 0.383234 0.742192 -0.863285
v 0.210213 -0.741593 -0.914160
v 0.210213 -0.741593 -0.863285
v 0.383234 -0.741593 -0.914160
v 0.383234 -0.741593 -0.863285
v 0.192910 0.742192 -0.914158
v 0.019889 0.742192 -0.914160
v 0.019889 0.742192 -0.863285
v 0.192910 0.742192 -0.863285
v 0.019889 -0.741593 -0.914160
v 0.019889 -0.741593 -0.863285
v 0.192910 -0.741593 -0.914160
v 0.192910 -0.741593 -0.863285
v 0.002586 0.742192 -0.914160
v -0.170435 0.742192 -0.914160
v -0.170435 0.742192 -0.863285
v 0.002586 0.742192 -0.863285
v -0.170435 -0.741593 -0.914160
v -0.170435 -0.741593 -0.863285
v 0.002586 -0.741593 -0.914160
v 0.002586 -0.741593 -0.863285
v -0.187736 0.742192 -0.914160
v -0.360759 0.742192 -0.914160
v -0.360759 0.742192 -0.863285
v -0.187736 0.742192 -0.863285
v -0.360757 -0.741593 -0.914160
v -0.360757 -0.741593 -0.863285
v -0.187736 -0.741593 -0.914160
v -0.187736 -0.741593 -0.863285
v -0.378060 0.742192 -0.914160
v -0.551081 0.742192 -0.914160
v -0.551081 0.742192 -0.863285
v -0.378060 0.742192 -0.863285
v -0.551081 -0.741593 -0.914160
v -0.551081 -0.741593 -0.863285
v -0.378060 -0.741593 -0.914160
v -0.378060 -0.741593 -0.863285
v -0.568384 0.742192 -0.914160
v -0.741405 0.742192 -0.914160
v -0.741405 0.742192 -0.863285
v -0.568384 0.742192 -0.863285
v -0.741405 -0.741593 -0.914160
v -0.741405 -0.741593 -0.863285
v -0.568384 -0.741593 -0.914160
v -0.568384 -0.741593 -0.863285
v 0.981528 -0.923350 0.783955
v 0.981528 -0.750329 0.783955
v 0.930654 -0.750329 0.783955
v 0.930654 -0.923350 0.783955
v 0.981528 -0.750329 -0.722298
v 0.930655 -0.750329 -0.722298
v 0.981528 -0.923350 -0.722298
v 0.930655 -0.923350 -0.722298
v 0.981528 -0.923248 -0.908066
v 0.981528 -0.923248 -0.735045
v 0.930654 -0.923248 -0.735045
v 0.930654 -0.923248 -0.908066
v 0.981528 0.922995 -0.735044
v 0.930655 0.922995 -0.735044
v 0.981528 0.922995 -0.908066
v 0.930655 0.922995 -0.908066
v 0.981528 -0.923248 0.791100
v 0.981528 -0.923248 0.964122
v 0.930654 -0.923248 0.964122
v 0.930654 -0.923248 0.791100
v 0.981528 0.922995 0.964122
v 0.930655 0.922995 0.964122
v 0.981528 0.922995 0.791101
v 0.930655 0.922995 0.791101
v 0.981528 0.750539 0.783955
v 0.981528 0.923560 0.783955
v 0.930654 0.923560 0.783955
v 0.930654 0.750539 0.783955
v 0.981528 0.923561 -0.722297
v 0.930655 0.923561 -0.722297
v 0.981528 0.750539 -0.722297
v 0.930655 0.750539 -0.722297
v 0.931909 0.742192 0.781292
v 0.931909 0.742192 0.608270
v 0.881035 0.742192 0.608270
v 0.881035 0.742192 0.781292
v 0.931909 -0.741594 0.608270
v 0.881035 -0.741594 0.608270
v 0.931909 -0.741594 0.781291
v 0.881035 -0.741594 0.781291
v 0.931909 0.742192 0.590969
v 0.931909 0.742192 0.417948
v 0.881035 0.742192 0.417948
v 0.881035 0.742192 0.590969
v 0.931909 -0.741593 0.417948
v 0.881035 -0.741593 0.417948
v 0.931909 -0.741594 0.590969
v 0.881035 -0.741594 0.590969
v 0.931909 0.742192 0.400645
v 0.931909 0.742192 0.227624
v 0.881035 0.742192 0.227624
v 0.881035 0.742192 0.400645
v 0.931909 -0.741593 0.227624
v 0.881035 -0.741593 0.227624
v 0.931909 -0.741593 0.400645
v 0.881035 -0.741593 0.400645
v 0.931909 0.742192 0.210322
v 0.931909 0.742192 0.037301
v 0.881035 0.742192 0.037301
v 0.881035 0.742192 0.210322
v 0.931909 -0.741593 0.037300
v 0.881035 -0.741593 0.037300
v 0.931909 -0.741593 0.210322
v 0.881035 -0.741593 0.210322
v 0.931909 0.742192 0.019998
v 0.931909 0.742192 -0.153023
v 0.881035 0.742192 -0.153023
v 0.881035 0.742192 0.019998
v 0.931909 -0.741593 -0.153023
v 0.881035 -0.741593 -0.153023
v 0.931909 -0.741593 0.019998
v 0.881035 -0.741593 0.019998
v 0.931909 0.742192 -0.170324
v 0.931909 0.742192 -0.343346
v 0.881035 0.742192 -0.343346
v 0.881035 0.742192 -0.170324
v 0.931909 -0.741593 -0.343346
v 0.881035 -0.741593 -0.343346
v 0.931909 -0.741593 -0.170325
v 0.881036 -0.741593 -0.170325
v 0.931909 0.742192 -0.360648
v 0.931909 0.742192 -0.533669
v 0.881035 0.742192 -0.533669
v 0.881035 0.742192 -0.360648
v 0.931909 -0.741593 -0.533670
v 0.881035 -0.741593 -0.533670
v 0.931909 -0.741593 -0.360648
v 0.881035 -0.741593 -0.360648
v 0.931909 0.742192 -0.550972
v 0.931909 0.742192 -0.723993
v 0.881035 0.742192 -0.723993
v 0.881035 0.742192 -0.550972
v 0.931909 -0.741593 -0.723993
v 0.881035 -0.741593 -0.723993
v 0.931909 -0.741593 -0.550972
v 0.881035 -0.741593 -0.550972
vt 0.216565 0.541393
vt 0.162424 0.541393
vt 0.162424 0.525474
vt 0.216565 0.525474
vt 0.742060 0.935634
vt 0.742060 0.464302
vt 0.757979 0.464302
vt 0.757979 0.935634
vt 0.561802 0.686004
vt 0.561802 0.631863
vt 0.577721 0.631863
vt 0.577721 0.686004
vt 0.812120 0.935634
vt 0.812120 0.464302
vt 0.828040 0.464302
vt 0.828040 0.935634
vt 0.216566 0.000000
vt 0.270707 0.000000
vt 0.270707 0.471332
vt 0.216565 0.471332
vt 0.378990 0.471332
vt 0.324848 0.471332
vt 0.324848 0.000000
vt 0.378990 0.000000
vt 0.529963 0.794287
vt 0.529963 0.740145
vt 0.545882 0.740145
vt 0.545882 0.794287
vt 0.968161 0.000000
vt 0.968161 0.577721
vt 0.952242 0.577721
vt 0.952242 0.000000
vt 0.561802 0.848428
vt 0.561802 0.794287
vt 0.577721 0.794287
vt 0.577721 0.848428
vt 0.936322 0.577721
vt 0.936323 0.000000
vt 0.952242 0.000000
vt 0.952242 0.577721
vt 0.000000 0.000000
vt 0.054141 0.000000
vt 0.054141 0.577721
vt 0.000000 0.577721
vt 0.054141 0.000000
vt 0.108283 0.000000
vt 0.108283 0.577721
vt 0.054141 0.577721
vt 0.496140 0.686004
vt 0.496140 0.631863
vt 0.512060 0.631863
vt 0.512060 0.686004
vt 0.984081 0.000000
vt 0.984081 0.577721
vt 0.968161 0.577721
vt 0.968161 0.000000
vt 0.496140 0.740145
vt 0.496140 0.686004
vt 0.512060 0.686004
vt 0.512060 0.740145
vt 0.920403 0.577721
vt 0.920403 0.000000
vt 0.936322 0.000000
vt 0.936322 0.577721
vt 0.000000 0.631863
vt 0.000000 0.577721
vt 0.577721 0.577721
vt 0.577721 0.631863
vt 0.108283 0.000000
vt 0.162424 0.000000
vt 0.162424 0.577721
vt 0.108283 0.577721
vt 0.496140 0.631863
vt 0.496140 0.686004
vt 0.480221 0.686004
vt 0.480221 0.631863
vt 0.757979 0.935634
vt 0.757979 0.464302
vt 0.773898 0.464302
vt 0.773898 0.935634
vt 0.529963 0.686004
vt 0.529963 0.631863
vt 0.545882 0.631863
vt 0.545883 0.686004
vt 0.796201 0.935634
vt 0.796201 0.464302
vt 0.812120 0.464302
vt 0.812120 0.935634
vt 0.162424 0.000000
vt 0.216565 0.000000
vt 0.216565 0.471332
vt 0.162424 0.471332
vt 0.270707 0.000000
vt 0.324848 0.000000
vt 0.324848 0.471332
vt 0.270707 0.471332
vt 0.561802 0.740145
vt 0.561802 0.686004
vt 0.577721 0.686004
vt 0.577721 0.740145
vt 0.898100 0.928603
vt 0.898100 0.464302
vt 0.914020 0.464302
vt 0.914020 0.928603
vt 0.480221 0.740145
vt 0.480221 0.686004
vt 0.496140 0.686004
vt 0.496140 0.740145
vt 0.719757 0.464302
vt 0.719757 0.928603
vt 0.703838 0.928603
vt 0.703838 0.464302
vt 0.464302 0.740145
vt 0.464302 0.794287
vt 0.000000 0.794287
vt 0.000000 0.740145
vt 0.626726 0.471332
vt 0.626726 0.525474
vt 0.162424 0.525474
vt 0.162424 0.471333
vt 0.512060 0.686004
vt 0.512060 0.631863
vt 0.527979 0.631863
vt 0.527979 0.686004
vt 0.594887 0.989776
vt 0.594887 0.525474
vt 0.610806 0.525474
vt 0.610806 0.989776
vt 0.561802 0.794287
vt 0.561802 0.740145
vt 0.577721 0.740145
vt 0.577721 0.794287
vt 0.703838 0.464302
vt 0.703838 0.928603
vt 0.687918 0.928603
vt 0.687918 0.464302
vt 0.464302 0.794287
vt 0.464302 0.848428
vt 0.000000 0.848428
vt 0.000000 0.794287
vt 0.812120 0.464302
vt 0.757979 0.464302
vt 0.757979 0.000000
vt 0.812120 0.000000
vt 0.464302 0.740145
vt 0.464302 0.686004
vt 0.480221 0.686004
vt 0.480221 0.740145
vt 0.984081 0.464302
vt 0.984081 0.000000
vt 1.000000 0.000000
vt 1.000000 0.464302
vt 0.496140 0.794287
vt 0.496140 0.740145
vt 0.512060 0.740145
vt 0.512060 0.794287
vt 0.649696 0.464302
vt 0.649696 0.928603
vt 0.633777 0.928603
vt 0.633777 0.464302
vt 0.464302 0.848428
vt 0.464302 0.902569
vt 0.000000 0.902569
vt 0.000000 0.848428
vt 0.866262 0.464302
vt 0.812120 0.464302
vt 0.812120 0.000000
vt 0.866262 0.000000
vt 0.545882 0.686004
vt 0.545882 0.631863
vt 0.561802 0.631863
vt 0.561802 0.686004
vt 0.882181 0.928604
vt 0.882181 0.464302
vt 0.898100 0.464302
vt 0.898100 0.928604
vt 0.464302 0.686004
vt 0.464302 0.631863
vt 0.480221 0.631863
vt 0.480221 0.686004
vt 0.742060 0.464302
vt 0.742060 0.928603
vt 0.726140 0.928603
vt 0.726140 0.464302
vt 0.464302 0.686004
vt 0.464302 0.740145
vt 0.000000 0.740145
vt 0.000000 0.686004
vt 0.649696 0.464302
vt 0.595555 0.464302
vt 0.595555 0.000000
vt 0.649696 0.000000
vt 0.529963 0.740145
vt 0.529963 0.686004
vt 0.545882 0.686004
vt 0.545882 0.740145
vt 0.828040 0.928603
vt 0.828040 0.464302
vt 0.843959 0.464302
vt 0.843959 0.928603
vt 0.480221 0.794287
vt 0.480221 0.740145
vt 0.496140 0.740145
vt 0.496140 0.794287
vt 0.866262 0.464302
vt 0.866262 0.928603
vt 0.850342 0.928603
vt 0.850342 0.464302
vt 0.487272 0.464302
vt 0.433131 0.464302
vt 0.433131 0.000000
vt 0.487272 0.000000
vt 0.703838 0.464302
vt 0.649696 0.464302
vt 0.649696 0.000000
vt 0.703838 0.000000
vt 0.512060 0.794287
vt 0.512060 0.740145
vt 0.527979 0.740145
vt 0.527979 0.794287
vt 0.610806 0.989776
vt 0.610806 0.525474
vt 0.626726 0.525474
vt 0.626726 0.989776
vt 0.545882 0.794287
vt 0.545882 0.740145
vt 0.561802 0.740145
vt 0.561802 0.794287
vt 0.789818 0.464302
vt 0.789818 0.928603
vt 0.773898 0.928603
vt 0.773898 0.464302
vt 0.541414 0.464302
vt 0.487272 0.464302
vt 0.487272 0.000000
vt 0.541414 0.000000
vt 0.757979 0.464302
vt 0.703838 0.464302
vt 0.703838 0.000000
vt 0.757979 0.000000
vt 0.512060 0.740145
vt 0.512060 0.686004
vt 0.527979 0.686004
vt 0.527979 0.740145
vt 0.665616 0.928603
vt 0.665616 0.464302
vt 0.681535 0.464302
vt 0.681535 0.928603
vt 0.464302 0.794287
vt 0.464302 0.740145
vt 0.480221 0.740145
vt 0.480221 0.794287
vt 0.882181 0.464302
vt 0.882181 0.928603
vt 0.866262 0.928603
vt 0.866262 0.464302
vt 0.595555 0.464302
vt 0.541414 0.464302
vt 0.541414 0.000000
vt 0.595555 0.000000
vt 0.464302 0.631863
vt 0.464302 0.686004
vt 0.000000 0.686004
vt 0.000000 0.631863
vt 0.545882 0.740145
vt 0.545882 0.686004
vt 0.561802 0.686004
vt 0.561802 0.740145
vt 0.578968 0.989776
vt 0.578968 0.525474
vt 0.594887 0.525474
vt 0.594887 0.989776
vt 0.545882 0.848428
vt 0.545882 0.794287
vt 0.561802 0.794287
vt 0.561802 0.848428
vt 0.665616 0.464302
vt 0.665616 0.928604
vt 0.649696 0.928604
vt 0.649696 0.464302
vt 0.920403 0.464302
vt 0.866262 0.464302
vt 0.866262 0.000000
vt 0.920403 0.000000
vt 0.378990 0.000000
vt 0.433131 0.000000
vt 0.433131 0.464302
vt 0.378990 0.464302
vt 0.216565 0.541393
vt 0.162424 0.541393
vt 0.162424 0.525474
vt 0.216565 0.525474
vt 0.742060 0.935634
vt 0.742060 0.464302
vt 0.757979 0.464302
vt 0.757979 0.935634
vt 0.561802 0.686004
vt 0.561802 0.631863
vt 0.577721 0.631863
vt 0.577721 0.686004
vt 0.974916 0.488227
vt 0.974916 0.016894
vt 0.990835 0.016894
vt 0.990835 0.488227
vt 0.216566 0.000000
vt 0.270707 0.000000
vt 0.270707 0.471332
vt 0.216565 0.471332
vt 0.378990 0.471332
vt 0.324848 0.471332
vt 0.324848 0.000000
vt 0.378990 0.000000
vt 0.972528 0.242199
vt 0.972528 0.188057
vt 0.988447 0.188057
vt 0.988447 0.242199
vt 0.968161 0.000000
vt 0.968161 0.577721
vt 0.952242 0.577721
vt 0.952242 0.000000
vt 0.972329 0.349239
vt 0.972329 0.295098
vt 0.988248 0.295098
vt 0.988248 0.349239
vt 0.936322 0.577721
vt 0.936323 0.000000
vt 0.952242 0.000000
vt 0.952242 0.577721
vt 0.000000 0.000000
vt 0.054141 0.000000
vt 0.054141 0.577721
vt 0.000000 0.577721
vt 0.054141 0.000000
vt 0.108283 0.000000
vt 0.108283 0.577721
vt 0.054141 0.577721
vt 0.971860 0.305279
vt 0.971860 0.251138
vt 0.987779 0.251138
vt 0.987779 0.305279
vt 0.984081 0.000000
vt 0.984081 0.577721
vt 0.968161 0.577721
vt 0.968161 0.000000
vt 0.970593 0.424241
vt 0.970593 0.370099
vt 0.986513 0.370099
vt 0.986513 0.424241
vt 0.920403 0.577721
vt 0.920403 0.000000
vt 0.936322 0.000000
vt 0.936322 0.577721
vt 0.000000 0.631863
vt 0.000000 0.577721
vt 0.577721 0.577721
vt 0.577721 0.631863
vt 0.108283 0.000000
vt 0.162424 0.000000
vt 0.162424 0.577721
vt 0.108283 0.577721
vt 0.496140 0.631863
vt 0.496140 0.686004
vt 0.480221 0.686004
vt 0.480221 0.631863
vt 0.969618 0.473751
vt 0.969618 0.002418
vt 0.985538 0.002418
vt 0.985538 0.473751
vt 0.529963 0.686004
vt 0.529963 0.631863
vt 0.545882 0.631863
vt 0.545883 0.686004
vt 0.796201 0.935634
vt 0.796201 0.464302
vt 0.812120 0.464302
vt 0.812120 0.935634
vt 0.162424 0.000000
vt 0.216565 0.000000
vt 0.216565 0.471332
vt 0.162424 0.471332
vt 0.270707 0.000000
vt 0.324848 0.000000
vt 0.324848 0.471332
vt 0.270707 0.471332
vt 0.561802 0.740145
vt 0.561802 0.686004
vt 0.577721 0.686004
vt 0.577721 0.740145
vt 0.898100 0.928603
vt 0.898100 0.464302
vt 0.914020 0.464302
vt 0.914020 0.928603
vt 0.480221 0.740145
vt 0.480221 0.686004
vt 0.496140 0.686004
vt 0.496140 0.740145
vt 0.719757 0.464302
vt 0.719757 0.928603
vt 0.703838 0.928603
vt 0.703838 0.464302
vt 0.464302 0.740145
vt 0.464302 0.794287
vt 0.000000 0.794287
vt 0.000000 0.740145
vt 0.626726 0.471332
vt 0.626726 0.525474
vt 0.162424 0.525474
vt 0.162424 0.471333
vt 0.512060 0.686004
vt 0.512060 0.631863
vt 0.527979 0.631863
vt 0.527979 0.686004
vt 0.594887 0.989776
vt 0.594887 0.525474
vt 0.610806 0.525474
vt 0.610806 0.989776
vt 0.561802 0.794287
vt 0.561802 0.740145
vt 0.577721 0.740145
vt 0.577721 0.794287
vt 0.703838 0.464302
vt 0.703838 0.928603
vt 0.687918 0.928603
vt 0.687918 0.464302
vt 0.464302 0.794287
vt 0.464302 0.848428
vt 0.000000 0.848428
vt 0.000000 0.794287
vt 0.812120 0.464302
vt 0.757979 0.464302
vt 0.757979 0.000000
vt 0.812120 0.000000
vt 0.464302 0.740145
vt 0.464302 0.686004
vt 0.480221 0.686004
vt 0.480221 0.740145
vt 0.984081 0.464302
vt 0.984081 0.000000
vt 1.000000 0.000000
vt 1.000000 0.464302
vt 0.496140 0.794287
vt 0.496140 0.740145
vt 0.512060 0.740145
vt 0.512060 0.794287
vt 0.649696 0.464302
vt 0.649696 0.928603
vt 0.633777 0.928603
vt 0.633777 0.464302
vt 0.464302 0.848428
vt 0.464302 0.902569
vt 0.000000 0.902569
vt 0.000000 0.848428
vt 0.866262 0.464302
vt 0.812120 0.464302
vt 0.812120 0.000000
vt 0.866262 0.000000
vt 0.545882 0.686004
vt 0.545882 0.631863
vt 0.561802 0.631863
vt 0.561802 0.686004
vt 0.882181 0.928604
vt 0.882181 0.464302
vt 0.898100 0.464302
vt 0.898100 0.928604
vt 0.464302 0.686004
vt 0.464302 0.631863
vt 0.480221 0.631863
vt 0.480221 0.686004
vt 0.742060 0.464302
vt 0.742060 0.928603
vt 0.726140 0.928603
vt 0.726140 0.464302
vt 0.464302 0.686004
vt 0.464302 0.740145
vt 0.000000 0.740145
vt 0.000000 0.686004
vt 0.649696 0.464302
vt 0.595555 0.464302
vt 0.595555 0.000000
vt 0.649696 0.000000
vt 0.529963 0.740145
vt 0.529963 0.686004
vt 0.545882 0.686004
vt 0.545882 0.740145
vt 0.828040 0.928603
vt 0.828040 0.464302
vt 0.843959 0.464302
vt 0.843959 0.928603
vt 0.480221 0.794287
vt 0.480221 0.740145
vt 0.496140 0.740145
vt 0.496140 0.794287
vt 0.866262 0.464302
vt 0.866262 0.928603
vt 0.850342 0.928603
vt 0.850342 0.464302
vt 0.487272 0.464302
vt 0.433131 0.464302
vt 0.433131 0.000000
vt 0.487272 0.000000
vt 0.703838 0.464302
vt 0.649696 0.464302
vt 0.649696 0.000000
vt 0.703838 0.000000
vt 0.512060 0.794287
vt 0.512060 0.740145
vt 0.527979 0.740145
vt 0.527979 0.794287
vt 0.610806 0.989776
vt 0.610806 0.525474
vt 0.626726 0.525474
vt 0.626726 0.989776
vt 0.545882 0.794287
vt 0.545882 0.740145
vt 0.561802 0.740145
vt 0.561802 0.794287
vt 0.789818 0.464302
vt 0.789818 0.928603
vt 0.773898 0.928603
vt 0.773898 0.464302
vt 0.541414 0.464302
vt 0.487272 0.464302
vt 0.487272 0.000000
vt 0.541414 0.000000
vt 0.757979 0.464302
vt 0.703838 0.464302
vt 0.703838 0.000000
vt 0.757979 0.000000
vt 0.512060 0.740145
vt 0.512060 0.686004
vt 0.527979 0.686004
vt 0.527979 0.740145
vt 0.665616 0.928603
vt 0.665616 0.464302
vt 0.681535 0.464302
vt 0.681535 0.928603
vt 0.464302 0.794287
vt 0.464302 0.740145
vt 0.480221 0.740145
vt 0.480221 0.794287
vt 0.882181 0.464302
vt 0.882181 0.928603
vt 0.866262 0.928603
vt 0.866262 0.464302
vt 0.595555 0.464302
vt 0.541414 0.464302
vt 0.541414 0.000000
vt 0.595555 0.000000
vt 0.464302 0.631863
vt 0.464302 0.686004
vt 0.000000 0.686004
vt 0.000000 0.631863
vt 0.545882 0.740145
vt 0.545882 0.686004
vt 0.561802 0.686004
vt 0.561802 0.740145
vt 0.578968 0.989776
vt 0.578968 0.525474
vt 0.594887 0.525474
vt 0.594887 0.989776
vt 0.545882 0.848428
vt 0.545882 0.794287
vt 0.561802 0.794287
vt 0.561802 0.848428
vt 0.665616 0.464302
vt 0.665616 0.928604
vt 0.649696 0.928604
vt 0.649696 0.464302
vt 0.920403 0.464302
vt 0.866262 0.464302
vt 0.866262 0.000000
vt 0.920403 0.000000
vt 0.378990 0.000000
vt 0.433131 0.000000
vt 0.433131 0.464302
vt 0.378990 0.464302
vt 0.216565 0.541393
vt 0.162424 0.541393
vt 0.162424 0.525474
vt 0.216565 0.525474
vt 0.742060 0.935634
vt 0.742060 0.464302
vt 0.757979 0.464302
vt 0.757979 0.935634
vt 0.561802 0.686004
vt 0.561802 0.631863
vt 0.577721 0.631863
vt 0.577721 0.686004
vt 0.812120 0.935634
vt 0.812120 0.464302
vt 0.828040 0.464302
vt 0.828040 0.935634
vt 0.216566 0.000000
vt 0.270707 0.000000
vt 0.270707 0.471332
vt 0.216565 0.471332
vt 0.378990 0.471332
vt 0.324848 0.471332
vt 0.324848 0.000000
vt 0.378990 0.000000
vt 0.529963 0.794287
vt 0.529963 0.740145
vt 0.545882 0.740145
vt 0.545882 0.794287
vt 0.968161 0.000000
vt 0.968161 0.577721
vt 0.952242 0.577721
vt 0.952242 0.000000
vt 0.561802 0.848428
vt 0.561802 0.794287
vt 0.577721 0.794287
vt 0.577721 0.848428
vt 0.936322 0.577721
vt 0.936323 0.000000
vt 0.952242 0.000000
vt 0.952242 0.577721
vt 0.000000 0.000000
vt 0.054141 0.000000
vt 0.054141 0.577721
vt 0.000000 0.577721
vt 0.054141 0.000000
vt 0.108283 0.000000
vt 0.108283 0.577721
vt 0.054141 0.577721
vt 0.496140 0.686004
vt 0.496140 0.631863
vt 0.512060 0.631863
vt 0.512060 0.686004
vt 0.984081 0.000000
vt 0.984081 0.577721
vt 0.968161 0.577721
vt 0.968161 0.000000
vt 0.496140 0.740145
vt 0.496140 0.686004
vt 0.512060 0.686004
vt 0.512060 0.740145
vt 0.920403 0.577721
vt 0.920403 0.000000
vt 0.936322 0.000000
vt 0.936322 0.577721
vt 0.000000 0.631863
vt 0.000000 0.577721
vt 0.577721 0.577721
vt 0.577721 0.631863
vt 0.108283 0.000000
vt 0.162424 0.000000
vt 0.162424 0.577721
vt 0.108283 0.577721
vt 0.496140 0.631863
vt 0.496140 0.686004
vt 0.480221 0.686004
vt 0.480221 0.631863
vt 0.757979 0.935634
vt 0.757979 0.464302
vt 0.773898 0.464302
vt 0.773898 0.935634
vt 0.529963 0.686004
vt 0.529963 0.631863
vt 0.545882 0.631863
vt 0.545883 0.686004
vt 0.796201 0.935634
vt 0.796201 0.464302
vt 0.812120 0.464302
vt 0.812120 0.935634
vt 0.162424 0.000000
vt 0.216565 0.000000
vt 0.216565 0.471332
vt 0.162424 0.471332
vt 0.270707 0.000000
vt 0.324848 0.000000
vt 0.324848 0.471332
vt 0.270707 0.471332
vt 0.561802 0.740145
vt 0.561802 0.686004
vt 0.577721 0.686004
vt 0.577721 0.740145
vt 0.898100 0.928603
vt 0.898100 0.464302
vt 0.914020 0.464302
vt 0.914020 0.928603
vt 0.480221 0.740145
vt 0.480221 0.686004
vt 0.496140 0.686004
vt 0.496140 0.740145
vt 0.719757 0.464302
vt 0.719757 0.928603
vt 0.703838 0.928603
vt 0.703838 0.464302
vt 0.464302 0.740145
vt 0.464302 0.794287
vt 0.000000 0.794287
vt 0.000000 0.740145
vt 0.626726 0.471332
vt 0.626726 0.525474
vt 0.162424 0.525474
vt 0.162424 0.471333
vt 0.512060 0.686004
vt 0.512060 0.631863
vt 0.527979 0.631863
vt 0.527979 0.686004
vt 0.594887 0.989776
vt 0.594887 0.525474
vt 0.610806 0.525474
vt 0.610806 0.989776
vt 0.561802 0.794287
vt 0.561802 0.740145
vt 0.577721 0.740145
vt 0.577721 0.794287
vt 0.703838 0.464302
vt 0.703838 0.928603
vt 0.687918 0.928603
vt 0.687918 0.464302
vt 0.464302 0.794287
vt 0.464302 0.848428
vt 0.000000 0.848428
vt 0.000000 0.794287
vt 0.812120 0.464302
vt 0.757979 0.464302
vt 0.757979 0.000000
vt 0.812120 0.000000
vt 0.464302 0.740145
vt 0.464302 0.686004
vt 0.480221 0.686004
vt 0.480221 0.740145
vt 0.984081 0.464302
vt 0.984081 0.000000
vt 1.000000 0.000000
vt 1.000000 0.464302
vt 0.496140 0.794287
vt 0.496140 0.740145
vt 0.512060 0.740145
vt 0.512060 0.794287
vt 0.649696 0.464302
vt 0.649696 0.928603
vt 0.633777 0.928603
vt 0.633777 0.464302
vt 0.464302 0.848428
vt 0.464302 0.902569
vt 0.000000 0.902569
vt 0.000000 0.848428
vt 0.866262 0.464302
vt 0.812120 0.464302
vt 0.812120 0.000000
vt 0.866262 0.000000
vt 0.545882 0.686004
vt 0.545882 0.631863
vt 0.561802 0.631863
vt 0.561802 0.686004
vt 0.882181 0.928604
vt 0.882181 0.464302
vt 0.898100 0.464302
vt 0.898100 0.928604
vt 0.464302 0.686004
vt 0.464302 0.631863
vt 0.480221 0.631863
vt 0.480221 0.686004
vt 0.742060 0.464302
vt 0.742060 0.928603
vt 0.726140 0.928603
vt 0.726140 0.464302
vt 0.464302 0.686004
vt 0.464302 0.740145
vt 0.000000 0.740145
vt 0.000000 0.686004
vt 0.649696 0.464302
vt 0.595555 0.464302
vt 0.595555 0.000000
vt 0.649696 0.000000
vt 0.529963 0.740145
vt 0.529963 0.686004
vt 0.545882 0.686004
vt 0.545882 0.740145
vt 0.828040 0.928603
vt 0.828040 0.464302
vt 0.843959 0.464302
vt 0.843959 0.928603
vt 0.480221 0.794287
vt 0.480221 0.740145
vt 0.496140 0.740145
vt 0.496140 0.794287
vt 0.866262 0.464302
vt 0.866262 0.928603
vt 0.850342 0.928603
vt 0.850342 0.464302
vt 0.487272 0.464302
vt 0.433131 0.464302
vt 0.433131 0.000000
vt 0.487272 0.000000
vt 0.703838 0.464302
vt 0.649696 0.464302
vt 0.649696 0.000000
vt 0.703838 0.000000
vt 0.512060 0.794287
vt 0.512060 0.740145
vt 0.527979 0.740145
vt 0.527979 0.794287
vt 0.610806 0.989776
vt 0.610806 0.525474
vt 0.626726 0.525474
vt 0.626726 0.989776
vt 0.545882 0.794287
vt 0.545882 0.740145
vt 0.561802 0.740145
vt 0.561802 0.794287
vt 0.789818 0.464302
vt 0.789818 0.928603
vt 0.773898 0.928603
vt 0.773898 0.464302
vt 0.541414 0.464302
vt 0.487272 0.464302
vt 0.487272 0.000000
vt 0.541414 0.000000
vt 0.757979 0.464302
vt 0.703838 0.464302
vt 0.703838 0.000000
vt 0.757979 0.000000
vt 0.512060 0.740145
vt 0.512060 0.686004
vt 0.527979 0.686004
vt 0.527979 0.740145
vt 0.665616 0.928603
vt 0.665616 0.464302
vt 0.681535 0.464302
vt 0.681535 0.928603
vt 0.464302 0.794287
vt 0.464302 0.740145
vt 0.480221 0.740145
vt 0.480221 0.794287
vt 0.882181 0.464302
vt 0.882181 0.928603
vt 0.866262 0.928603
vt 0.866262 0.464302
vt 0.595555 0.464302
vt 0.541414 0.464302
vt 0.541414 0.000000
vt 0.595555 0.000000
vt 0.464302 0.631863
vt 0.464302 0.686004
vt 0.000000 0.686004
vt 0.000000 0.631863
vt 0.545882 0.740145
vt 0.545882 0.686004
vt 0.561802 0.686004
vt 0.561802 0.740145
vt 0.578968 0.989776
vt 0.578968 0.525474
vt 0.594887 0.525474
vt 0.594887 0.989776
vt 0.545882 0.848428
vt 0.545882 0.794287
vt 0.561802 0.794287
vt 0.561802 0.848428
vt 0.665616 0.464302
vt 0.665616 0.928604
vt 0.649696 0.928604
vt 0.649696 0.464302
vt 0.920403 0.464302
vt 0.866262 0.464302
vt 0.866262 0.000000
vt 0.920403 0.000000
vt 0.378990 0.000000
vt 0.433131 0.000000
vt 0.433131 0.464302
vt 0.378990 0.464302
vt 0.216565 0.541393
vt 0.162424 0.541393
vt 0.162424 0.525474
vt 0.216565 0.525474
vt 0.742060 0.935634
vt 0.742060 0.464302
vt 0.757979 0.464302
vt 0.757979 0.935634
vt 0.561802 0.686004
vt 0.561802 0.631863
vt 0.577721 0.631863
vt 0.577721 0.686004
vt 0.812120 0.935634
vt 0.812120 0.464302
vt 0.828040 0.464302
vt 0.828040 0.935634
vt 0.216566 0.000000
vt 0.270707 0.000000
vt 0.270707 0.471332
vt 0.216565 0.471332
vt 0.378990 0.471332
vt 0.324848 0.471332
vt 0.324848 0.000000
vt 0.378990 0.000000
vt 0.529963 0.794287
vt 0.529963 0.740145
vt 0.545882 0.740145
vt 0.545882 0.794287
vt 0.968161 0.000000
vt 0.968161 0.577721
vt 0.952242 0.577721
vt 0.952242 0.000000
vt 0.561802 0.848428
vt 0.561802 0.794287
vt 0.577721 0.794287
vt 0.577721 0.848428
vt 0.936322 0.577721
vt 0.936323 0.000000
vt 0.952242 0.000000
vt 0.952242 0.577721
vt 0.000000 0.000000
vt 0.054141 0.000000
vt 0.054141 0.577721
vt 0.000000 0.577721
vt 0.054141 0.000000
vt 0.108283 0.000000
vt 0.108283 0.577721
vt 0.054141 0.577721
vt 0.496140 0.686004
vt 0.496140 0.631863
vt 0.512060 0.631863
vt 0.512060 0.686004
vt 0.984081 0.000000
vt 0.984081 0.577721
vt 0.968161 0.577721
vt 0.968161 0.000000
vt 0.496140 0.740145
vt 0.496140 0.686004
vt 0.512060 0.686004
vt 0.512060 0.740145
vt 0.920403 0.577721
vt 0.920403 0.000000
vt 0.936322 0.000000
vt 0.936322 0.577721
vt 0.000000 0.631863
vt 0.000000 0.577721
vt 0.577721 0.577721
vt 0.577721 0.631863
vt 0.108283 0.000000
vt 0.162424 0.000000
vt 0.162424 0.577721
vt 0.108283 0.577721
vt 0.496140 0.631863
vt 0.496140 0.686004
vt 0.480221 0.686004
vt 0.480221 0.631863
vt 0.757979 0.935634
vt 0.757979 0.464302
vt 0.773898 0.464302
vt 0.773898 0.935634
vt 0.529963 0.686004
vt 0.529963 0.631863
vt 0.545882 0.631863
vt 0.545883 0.686004
vt 0.796201 0.935634
vt 0.796201 0.464302
vt 0.812120 0.464302
vt 0.812120 0.935634
vt 0.162424 0.000000
vt 0.216565 0.000000
vt 0.216565 0.471332
vt 0.162424 0.471332
vt 0.270707 0.000000
vt 0.324848 0.000000
vt 0.324848 0.471332
vt 0.270707 0.471332
vt 0.561802 0.740145
vt 0.561802 0.686004
vt 0.577721 0.686004
vt 0.577721 0.740145
vt 0.898100 0.928603
vt 0.898100 0.464302
vt 0.914020 0.464302
vt 0.914020 0.928603
vt 0.480221 0.740145
vt 0.480221 0.686004
vt 0.496140 0.686004
vt 0.496140 0.740145
vt 0.719757 0.464302
vt 0.719757 0.928603
vt 0.703838 0.928603
vt 0.703838 0.464302
vt 0.464302 0.740145
vt 0.464302 0.794287
vt 0.000000 0.794287
vt 0.000000 0.740145
vt 0.626726 0.471332
vt 0.626726 0.525474
vt 0.162424 0.525474
vt 0.162424 0.471333
vt 0.512060 0.686004
vt 0.512060 0.631863
vt 0.527979 0.631863
vt 0.527979 0.686004
vt 0.594887 0.989776
vt 0.594887 0.525474
vt 0.610806 0.525474
vt 0.610806 0.989776
vt 0.561802 0.794287
vt 0.561802 0.740145
vt 0.577721 0.740145
vt 0.577721 0.794287
vt 0.703838 0.464302
vt 0.703838 0.928603
vt 0.687918 0.928603
vt 0.687918 0.464302
vt 0.464302 0.794287
vt 0.464302 0.848428
vt 0.000000 0.848428
vt 0.000000 0.794287
vt 0.812120 0.464302
vt 0.757979 0.464302
vt 0.757979 0.000000
vt 0.812120 0.000000
vt 0.464302 0.740145
vt 0.464302 0.686004
vt 0.480221 0.686004
vt 0.480221 0.740145
vt 0.984081 0.464302
vt 0.984081 0.000000
vt 1.000000 0.000000
vt 1.000000 0.464302
vt 0.496140 0.794287
vt 0.496140 0.740145
vt 0.512060 0.740145
vt 0.512060 0.794287
vt 0.649696 0.464302
vt 0.649696 0.928603
vt 0.633777 0.928603
vt 0.633777 0.464302
vt 0.464302 0.848428
vt 0.464302 0.902569
vt 0.000000 0.902569
vt 0.000000 0.848428
vt 0.866262 0.464302
vt 0.812120 0.464302
vt 0.812120 0.000000
vt 0.866262 0.000000
vt 0.545882 0.686004
vt 0.545882 0.631863
vt 0.561802 0.631863
vt 0.561802 0.686004
vt 0.882181 0.928604
vt 0.882181 0.464302
vt 0.898100 0.464302
vt 0.898100 0.928604
vt 0.464302 0.686004
vt 0.464302 0.631863
vt 0.480221 0.631863
vt 0.480221 0.686004
vt 0.742060 0.464302
vt 0.742060 0.928603
vt 0.726140 0.928603
vt 0.726140 0.464302
vt 0.464302 0.686004
vt 0.464302 0.740145
vt 0.000000 0.740145
vt 0.000000 0.686004
vt 0.649696 0.464302
vt 0.595555 0.464302
vt 0.595555 0.000000
vt 0.649696 0.000000
vt 0.529963 0.740145
vt 0.529963 0.686004
vt 0.545882 0.686004
vt 0.545882 0.740145
vt 0.828040 0.928603
vt 0.828040 0.464302
vt 0.843959 0.464302
vt 0.843959 0.928603
vt 0.480221 0.794287
vt 0.480221 0.740145
vt 0.496140 0.740145
vt 0.496140 0.794287
vt 0.866262 0.464302
vt 0.866262 0.928603
vt 0.850342 0.928603
vt 0.850342 0.464302
vt 0.487272 0.464302
vt 0.433131 0.464302
vt 0.433131 0.000000
vt 0.487272 0.000000
vt 0.703838 0.464302
vt 0.649696 0.464302
vt 0.649696 0.000000
vt 0.703838 0.000000
vt 0.512060 0.794287
vt 0.512060 0.740145
vt 0.527979 0.740145
vt 0.527979 0.794287
vt 0.610806 0.989776
vt 0.610806 0.525474
vt 0.626726 0.525474
vt 0.626726 0.989776
vt 0.545882 0.794287
vt 0.545882 0.740145
vt 0.561802 0.740145
vt 0.561802 0.794287
vt 0.789818 0.464302
vt 0.789818 0.928603
vt 0.773898 0.928603
vt 0.773898 0.464302
vt 0.541414 0.464302
vt 0.487272 0.464302
vt 0.487272 0.000000
vt 0.541414 0.000000
vt 0.757979 0.464302
vt 0.703838 0.464302
vt 0.703838 0.000000
vt 0.757979 0.000000
vt 0.512060 0.740145
vt 0.512060 0.686004
vt 0.527979 0.686004
vt 0.527979 0.740145
vt 0.665616 0.928603
vt 0.665616 0.464302
vt 0.681535 0.464302
vt 0.681535 0.928603
vt 0.464302 0.794287
vt 0.464302 0.740145
vt 0.480221 0.740145
vt 0.480221 0.794287
vt 0.882181 0.464302
vt 0.882181 0.928603
vt 0.866262 0.928603
vt 0.866262 0.464302
vt 0.595555 0.464302
vt 0.541414 0.464302
vt 0.541414 0.000000
vt 0.595555 0.000000
vt 0.464302 0.631863
vt 0.464302 0.686004
vt 0.000000 0.686004
vt 0.000000 0.631863
vt 0.545882 0.740145
vt 0.545882 0.686004
vt 0.561802 0.686004
vt 0.561802 0.740145
vt 0.578968 0.989776
vt 0.578968 0.525474
vt 0.594887 0.525474
vt 0.594887 0.989776
vt 0.545882 0.848428
vt 0.545882 0.794287
vt 0.561802 0.794287
vt 0.561802 0.848428
vt 0.665616 0.464302
vt 0.665616 0.928604
vt 0.649696 0.928604
vt 0.649696 0.464302
vt 0.920403 0.464302
vt 0.866262 0.464302
vt 0.866262 0.000000
vt 0.920403 0.000000
vt 0.378990 0.000000
vt 0.433131 0.000000
vt 0.433131 0.464302
vt 0.378990 0.464302
vt 0.216565 0.541393
vt 0.162424 0.541393
vt 0.162424 0.525474
vt 0.216565 0.525474
vt 0.742060 0.935634
vt 0.742060 0.464302
vt 0.757979 0.464302
vt 0.757979 0.935634
vt 0.561802 0.686004
vt 0.561802 0.631863
vt 0.577721 0.631863
vt 0.577721 0.686004
vt 0.812120 0.935634
vt 0.812120 0.464302
vt 0.828040 0.464302
vt 0.828040 0.935634
vt 0.216566 0.000000
vt 0.270707 0.000000
vt 0.270707 0.471332
vt 0.216565 0.471332
vt 0.378990 0.471332
vt 0.324848 0.471332
vt 0.324848 0.000000
vt 0.378990 0.000000
vt 0.529963 0.794287
vt 0.529963 0.740145
vt 0.545882 0.740145
vt 0.545882 0.794287
vt 0.968161 0.000000
vt 0.968161 0.577721
vt 0.952242 0.577721
vt 0.952242 0.000000
vt 0.561802 0.848428
vt 0.561802 0.794287
vt 0.577721 0.794287
vt 0.577721 0.848428
vt 0.936322 0.577721
vt 0.936323 0.000000
vt 0.952242 0.000000
vt 0.952242 0.577721
vt 0.000000 0.000000
vt 0.054141 0.000000
vt 0.054141 0.577721
vt 0.000000 0.577721
vt 0.054141 0.000000
vt 0.108283 0.000000
vt 0.108283 0.577721
vt 0.054141 0.577721
vt 0.496140 0.686004
vt 0.496140 0.631863
vt 0.512060 0.631863
vt 0.512060 0.686004
vt 0.984081 0.000000
vt 0.984081 0.577721
vt 0.968161 0.577721
vt 0.968161 0.000000
vt 0.496140 0.740145
vt 0.496140 0.686004
vt 0.512060 0.686004
vt 0.512060 0.740145
vt 0.920403 0.577721
vt 0.920403 0.000000
vt 0.936322 0.000000
vt 0.936322 0.577721
vt 0.000000 0.631863
vt 0.000000 0.577721
vt 0.577721 0.577721
vt 0.577721 0.631863
vt 0.108283 0.000000
vt 0.162424 0.000000
vt 0.162424 0.577721
vt 0.108283 0.577721
vt 0.496140 0.631863
vt 0.496140 0.686004
vt 0.480221 0.686004
vt 0.480221 0.631863
vt 0.757979 0.935634
vt 0.757979 0.464302
vt 0.773898 0.464302
vt 0.773898 0.935634
vt 0.529963 0.686004
vt 0.529963 0.631863
vt 0.545882 0.631863
vt 0.545883 0.686004
vt 0.796201 0.935634
vt 0.796201 0.464302
vt 0.812120 0.464302
vt 0.812120 0.935634
vt 0.162424 0.000000
vt 0.216565 0.000000
vt 0.216565 0.471332
vt 0.162424 0.471332
vt 0.270707 0.000000
vt 0.324848 0.000000
vt 0.324848 0.471332
vt 0.270707 0.471332
vt 0.561802 0.740145
vt 0.561802 0.686004
vt 0.577721 0.686004
vt 0.577721 0.740145
vt 0.898100 0.928603
vt 0.898100 0.464302
vt 0.914020 0.464302
vt 0.914020 0.928603
vt 0.480221 0.740145
vt 0.480221 0.686004
vt 0.496140 0.686004
vt 0.496140 0.740145
vt 0.719757 0.464302
vt 0.719757 0.928603
vt 0.703838 0.928603
vt 0.703838 0.464302
vt 0.464302 0.740145
vt 0.464302 0.794287
vt 0.000000 0.794287
vt 0.000000 0.740145
vt 0.626726 0.471332
vt 0.626726 0.525474
vt 0.162424 0.525474
vt 0.162424 0.471333
vt 0.512060 0.686004
vt 0.512060 0.631863
vt 0.527979 0.631863
vt 0.527979 0.686004
vt 0.594887 0.989776
vt 0.594887 0.525474
vt 0.610806 0.525474
vt 0.610806 0.989776
vt 0.561802 0.794287
vt 0.561802 0.740145
vt 0.577721 0.740145
vt 0.577721 0.794287
vt 0.703838 0.464302
vt 0.703838 0.928603
vt 0.687918 0.928603
vt 0.687918 0.464302
vt 0.464302 0.794287
vt 0.464302 0.848428
vt 0.000000 0.848428
vt 0.000000 0.794287
vt 0.812120 0.464302
vt 0.757979 0.464302
vt 0.757979 0.000000
vt 0.812120 0.000000
vt 0.464302 0.740145
vt 0.464302 0.686004
vt 0.480221 0.686004
vt 0.480221 0.740145
vt 0.984081 0.464302
vt 0.984081 0.000000
vt 1.000000 0.000000
vt 1.000000 0.464302
vt 0.496140 0.794287
vt 0.496140 0.740145
vt 0.512060 0.740145
vt 0.512060 0.794287
vt 0.649696 0.464302
vt 0.649696 0.928603
vt 0.633777 0.928603
vt 0.633777 0.464302
vt 0.464302 0.848428
vt 0.464302 0.902569
vt 0.000000 0.902569
vt 0.000000 0.848428
vt 0.866262 0.464302
vt 0.812120 0.464302
vt 0.812120 0.000000
vt 0.866262 0.000000
vt 0.545882 0.686004
vt 0.545882 0.631863
vt 0.561802 0.631863
vt 0.561802 0.686004
vt 0.882181 0.928604
vt 0.882181 0.464302
vt 0.898100 0.464302
vt 0.898100 0.928604
vt 0.464302 0.686004
vt 0.464302 0.631863
vt 0.480221 0.631863
vt 0.480221 0.686004
vt 0.742060 0.464302
vt 0.742060 0.928603
vt 0.726140 0.928603
vt 0.726140 0.464302
vt 0.464302 0.686004
vt 0.464302 0.740145
vt 0.000000 0.740145
vt 0.000000 0.686004
vt 0.649696 0.464302
vt 0.595555 0.464302
vt 0.595555 0.000000
vt 0.649696 0.000000
vt 0.529963 0.740145
vt 0.529963 0.686004
vt 0.545882 0.686004
vt 0.545882 0.740145
vt 0.828040 0.928603
vt 0.828040 0.464302
vt 0.843959 0.464302
vt 0.843959 0.928603
vt 0.480221 0.794287
vt 0.480221 0.740145
vt 0.496140 0.740145
vt 0.496140 0.794287
vt 0.866262 0.464302
vt 0.866262 0.928603
vt 0.850342 0.928603
vt 0.850342 0.464302
vt 0.487272 0.464302
vt 0.433131 0.464302
vt 0.433131 0.000000
vt 0.487272 0.000000
vt 0.703838 0.464302
vt 0.649696 0.464302
vt 0.649696 0.000000
vt 0.703838 0.000000
vt 0.512060 0.794287
vt 0.512060 0.740145
vt 0.527979 0.740145
vt 0.527979 0.794287
vt 0.610806 0.989776
vt 0.610806 0.525474
vt 0.626726 0.525474
vt 0.626726 0.989776
vt 0.545882 0.794287
vt 0.545882 0.740145
vt 0.561802 0.740145
vt 0.561802 0.794287
vt 0.789818 0.464302
vt 0.789818 0.928603
vt 0.773898 0.928603
vt 0.773898 0.464302
vt 0.541414 0.464302
vt 0.487272 0.464302
vt 0.487272 0.000000
vt 0.541414 0.000000
vt 0.757979 0.464302
vt 0.703838 0.464302
vt 0.703838 0.000000
vt 0.757979 0.000000
vt 0.512060 0.740145
vt 0.512060 0.686004
vt 0.527979 0.686004
vt 0.527979 0.740145
vt 0.665616 0.928603
vt 0.665616 0.464302
vt 0.681535 0.464302
vt 0.681535 0.928603
vt 0.464302 0.794287
vt 0.464302 0.740145
vt 0.480221 0.740145
vt 0.480221 0.794287
vt 0.882181 0.464302
vt 0.882181 0.928603
vt 0.866262 0.928603
vt 0.866262 0.464302
vt 0.595555 0.464302
vt 0.541414 0.464302
vt 0.541414 0.000000
vt 0.595555 0.000000
vt 0.464302 0.631863
vt 0.464302 0.686004
vt 0.000000 0.686004
vt 0.000000 0.631863
vt 0.545882 0.740145
vt 0.545882 0.686004
vt 0.561802 0.686004
vt 0.561802 0.740145
vt 0.578968 0.989776
vt 0.578968 0.525474
vt 0.594887 0.525474
vt 0.594887 0.989776
vt 0.545882 0.848428
vt 0.545882 0.794287
vt 0.561802 0.794287
vt 0.561802 0.848428
vt 0.665616 0.464302
vt 0.665616 0.928604
vt 0.649696 0.928604
vt 0.649696 0.464302
vt 0.920403 0.464302
vt 0.866262 0.464302
vt 0.866262 0.000000
vt 0.920403 0.000000
vt 0.378990 0.000000
vt 0.433131 0.000000
vt 0.433131 0.464302
vt 0.378990 0.464302
vt 0.216565 0.541393
vt 0.162424 0.541393
vt 0.162424 0.525474
vt 0.216565 0.525474
vt 0.742060 0.935634
vt 0.742060 0.464302
vt 0.757979 0.464302
vt 0.757979 0.935634
vt 0.561802 0.686004
vt 0.561802 0.631863
vt 0.577721 0.631863
vt 0.577721 0.686004
vt 0.812120 0.935634
vt 0.812120 0.464302
vt 0.828040 0.464302
vt 0.828040 0.935634
vt 0.216566 0.000000
vt 0.270707 0.000000
vt 0.270707 0.471332
vt 0.216565 0.471332
vt 0.378990 0.471332
vt 0.324848 0.471332
vt 0.324848 0.000000
vt 0.378990 0.000000
vt 0.529963 0.794287
vt 0.529963 0.740145
vt 0.545882 0.740145
vt 0.545882 0.794287
vt 0.968161 0.000000
vt 0.968161 0.577721
vt 0.952242 0.577721
vt 0.952242 0.000000
vt 0.561802 0.848428
vt 0.561802 0.794287
vt 0.577721 0.794287
vt 0.577721 0.848428
vt 0.936322 0.577721
vt 0.936323 0.000000
vt 0.952242 0.000000
vt 0.952242 0.577721
vt 0.000000 0.000000
vt 0.054141 0.000000
vt 0.054141 0.577721
vt 0.000000 0.577721
vt 0.054141 0.000000
vt 0.108283 0.000000
vt 0.108283 0.577721
vt 0.054141 0.577721
vt 0.496140 0.686004
vt 0.496140 0.631863
vt 0.512060 0.631863
vt 0.512060 0.686004
vt 0.984081 0.000000
vt 0.984081 0.577721
vt 0.968161 0.577721
vt 0.968161 0.000000
vt 0.496140 0.740145
vt 0.496140 0.686004
vt 0.512060 0.686004
vt 0.512060 0.740145
vt 0.920403 0.577721
vt 0.920403 0.000000
vt 0.936322 0.000000
vt 0.936322 0.577721
vt 0.000000 0.631863
vt 0.000000 0.577721
vt 0.577721 0.577721
vt 0.577721 0.631863
vt 0.108283 0.000000
vt 0.162424 0.000000
vt 0.162424 0.577721
vt 0.108283 0.577721
vt 0.496140 0.631863
vt 0.496140 0.686004
vt 0.480221 0.686004
vt 0.480221 0.631863
vt 0.757979 0.935634
vt 0.757979 0.464302
vt 0.773898 0.464302
vt 0.773898 0.935634
vt 0.529963 0.686004
vt 0.529963 0.631863
vt 0.545882 0.631863
vt 0.545883 0.686004
vt 0.796201 0.935634
vt 0.796201 0.464302
vt 0.812120 0.464302
vt 0.812120 0.935634
vt 0.162424 0.000000
vt 0.216565 0.000000
vt 0.216565 0.471332
vt 0.162424 0.471332
vt 0.270707 0.000000
vt 0.324848 0.000000
vt 0.324848 0.471332
vt 0.270707 0.471332
vt 0.561802 0.740145
vt 0.561802 0.686004
vt 0.577721 0.686004
vt 0.577721 0.740145
vt 0.898100 0.928603
vt 0.898100 0.464302
vt 0.914020 0.464302
vt 0.914020 0.928603
vt 0.480221 0.740145
vt 0.480221 0.686004
vt 0.496140 0.686004
vt 0.496140 0.740145
vt 0.719757 0.464302
vt 0.719757 0.928603
vt 0.703838 0.928603
vt 0.703838 0.464302
vt 0.464302 0.740145
vt 0.464302 0.794287
vt 0.000000 0.794287
vt 0.000000 0.740145
vt 0.626726 0.471332
vt 0.626726 0.525474
vt 0.162424 0.525474
vt 0.162424 0.471333
vt 0.512060 0.686004
vt 0.512060 0.631863
vt 0.527979 0.631863
vt 0.527979 0.686004
vt 0.594887 0.989776
vt 0.594887 0.525474
vt 0.610806 0.525474
vt 0.610806 0.989776
vt 0.561802 0.794287
vt 0.561802 0.740145
vt 0.577721 0.740145
vt 0.577721 0.794287
vt 0.703838 0.464302
vt 0.703838 0.928603
vt 0.687918 0.928603
vt 0.687918 0.464302
vt 0.464302 0.794287
vt 0.464302 0.848428
vt 0.000000 0.848428
vt 0.000000 0.794287
vt 0.812120 0.464302
vt 0.757979 0.464302
vt 0.757979 0.000000
vt 0.812120 0.000000
vt 0.464302 0.740145
vt 0.464302 0.686004
vt 0.480221 0.686004
vt 0.480221 0.740145
vt 0.984081 0.464302
vt 0.984081 0.000000
vt 1.000000 0.000000
vt 1.000000 0.464302
vt 0.496140 0.794287
vt 0.496140 0.740145
vt 0.512060 0.740145
vt 0.512060 0.794287
vt 0.649696 0.464302
vt 0.649696 0.928603
vt 0.633777 0.928603
vt 0.633777 0.464302
vt 0.464302 0.848428
vt 0.464302 0.902569
vt 0.000000 0.902569
vt 0.000000 0.848428
vt 0.866262 0.464302
vt 0.812120 0.464302
vt 0.812120 0.000000
vt 0.866262 0.000000
vt 0.545882 0.686004
vt 0.545882 0.631863
vt 0.561802 0.631863
vt 0.561802 0.686004
vt 0.882181 0.928604
vt 0.882181 0.464302
vt 0.898100 0.464302
vt 0.898100 0.928604
vt 0.464302 0.686004
vt 0.464302 0.631863
vt 0.480221 0.631863
vt 0.480221 0.686004
vt 0.742060 0.464302
vt 0.742060 0.928603
vt 0.726140 0.928603
vt 0.726140 0.464302
vt 0.464302 0.686004
vt 0.464302 0.740145
vt 0.000000 0.740145
vt 0.000000 0.686004
vt 0.649696 0.464302
vt 0.595555 0.464302
vt 0.595555 0.000000
vt 0.649696 0.000000
vt 0.529963 0.740145
vt 0.529963 0.686004
vt 0.545882 0.686004
vt 0.545882 0.740145
vt 0.828040 0.928603
vt 0.828040 0.464302
vt 0.843959 0.464302
vt 0.843959 0.928603
vt 0.480221 0.794287
vt 0.480221 0.740145
vt 0.496140 0.740145
vt 0.496140 0.794287
vt 0.866262 0.464302
vt 0.866262 0.928603
vt 0.850342 0.928603
vt 0.850342 0.464302
vt 0.487272 0.464302
vt 0.433131 0.464302
vt 0.433131 0.000000
vt 0.487272 0.000000
vt 0.703838 0.464302
vt 0.649696 0.464302
vt 0.649696 0.000000
vt 0.703838 0.000000
vt 0.512060 0.794287
vt 0.512060 0.740145
vt 0.527979 0.740145
vt 0.527979 0.794287
vt 0.610806 0.989776
vt 0.610806 0.525474
vt 0.626726 0.525474
vt 0.626726 0.989776
vt 0.545882 0.794287
vt 0.545882 0.740145
vt 0.561802 0.740145
vt 0.561802 0.794287
vt 0.789818 0.464302
vt 0.789818 0.928603
vt 0.773898 0.928603
vt 0.773898 0.464302
vt 0.541414 0.464302
vt 0.487272 0.464302
vt 0.487272 0.000000
vt 0.541414 0.000000
vt 0.757979 0.464302
vt 0.703838 0.464302
vt 0.703838 0.000000
vt 0.757979 0.000000
vt 0.512060 0.740145
vt 0.512060 0.686004
vt 0.527979 0.686004
vt 0.527979 0.740145
vt 0.665616 0.928603
vt 0.665616 0.464302
vt 0.681535 0.464302
vt 0.681535 0.928603
vt 0.464302 0.794287
vt 0.464302 0.740145
vt 0.480221 0.740145
vt 0.480221 0.794287
vt 0.882181 0.464302
vt 0.882181 0.928603
vt 0.866262 0.928603
vt 0.866262 0.464302
vt 0.595555 0.464302
vt 0.541414 0.464302
vt 0.541414 0.000000
vt 0.595555 0.000000
vt 0.464302 0.631863
vt 0.464302 0.686004
vt 0.000000 0.686004
vt 0.000000 0.631863
vt 0.545882 0.740145
vt 0.545882 0.686004
vt 0.561802 0.686004
vt 0.561802 0.740145
vt 0.578968 0.989776
vt 0.578968 0.525474
vt 0.594887 0.525474
vt 0.594887 0.989776
vt 0.545882 0.848428
vt 0.545882 0.794287
vt 0.561802 0.794287
vt 0.561802 0.848428
vt 0.665616 0.464302
vt 0.665616 0.928604
vt 0.649696 0.928604
vt 0.649696 0.464302
vt 0.920403 0.464302
vt 0.866262 0.464302
vt 0.866262 0.000000
vt 0.920403 0.000000
vt 0.378990 0.000000
vt 0.433131 0.000000
vt 0.433131 0.464302
vt 0.378990 0.464302
vn 1.0000 0.0000 0.0000
vn -0.0000 0.0000 1.0000
vn -1.0000 0.0000 0.0000
vn -0.0000 0.0000 -1.0000
vn -0.0000 -1.0000 0.0000
vn 0.0000 1.0000 0.0000
usemtl Crate
s 1
f 1/1/1 2/2/1 3/3/1 4/4/1
f 2/5/2 5/6/2 6/7/2 3/8/2
f 5/9/3 7/10/3 8/11/3 6/12/3
f 7/13/4 1/14/4 4/15/4 8/16/4
f 4/17/5 3/18/5 6/19/5 8/20/5
f 7/21/6 5/22/6 2/23/6 1/24/6
f 9/25/4 10/26/4 11/27/4 12/28/4
f 10/29/1 13/30/1 14/31/1 11/32/1
f 13/33/2 15/34/2 16/35/2 14/36/2
f 15/37/3 9/38/3 12/39/3 16/40/3
f 12/41/5 11/42/5 14/43/5 16/44/5
f 15/45/6 13/46/6 10/47/6 9/48/6
f 17/49/4 18/50/4 19/51/4 20/52/4
f 18/53/1 21/54/1 22/55/1 19/56/1
f 21/57/2 23/58/2 24/59/2 22/60/2
f 23/61/3 17/62/3 20/63/3 24/64/3
f 20/65/5 19/66/5 22/67/5 24/68/5
f 23/69/6 21/70/6 18/71/6 17/72/6
f 25/73/1 26/74/1 27/75/1 28/76/1
f 26/77/2 29/78/2 30/79/2 27/80/2
f 29/81/3 31/82/3 32/83/3 30/84/3
f 31/85/4 25/86/4 28/87/4 32/88/4
f 28/89/5 27/90/5 30/91/5 32/92/5
f 31/93/6 29/94/6 26/95/6 25/96/6
f 33/97/2 34/98/2 35/99/2 36/100/2
f 34/101/3 37/102/3 38/103/3 35/104/3
f 37/105/4 39/106/4 40/107/4 38/108/4
f 39/109/1 33/110/1 36/111/1 40/112/1
f 36/113/5 35/114/5 38/115/5 40/116/5
f 39/117/6 37/118/6 34/119/6 33/120/6
f 41/121/2 42/122/2 43/123/2 44/124/2
f 42/125/3 45/126/3 46/127/3 43/128/3
f 45/129/4 47/130/4 48/131/4 46/132/4
f 47/133/1 41/134/1 44/135/1 48/136/1
f 44/137/5 43/138/5 46/139/5 48/140/5
f 47/141/6 45/142/6 42/143/6 41/144/6
f 49/145/2 50/146/2 51/147/2 52/148/2
f 50/149/3 53/150/3 54/151/3 51/152/3
f 53/153/4 55/154/4 56/155/4 54/156/4
f 55/157/1 49/158/1 52/159/1 56/160/1
f 52/161/5 51/162/5 54/163/5 56/164/5
f 55/165/6 53/166/6 50/167/6 49/168/6
f 57/169/2 58/170/2 59/171/2 60/172/2
f 58/173/3 61/174/3 62/175/3 59/176/3
f 61/177/4 63/178/4 64/179/4 62/180/4
f 63/181/1 57/182/1 60/183/1 64/184/1
f 60/185/5 59/186/5 62/187/5 64/188/5
f 63/189/6 61/190/6 58/191/6 57/192/6
f 65/193/2 66/194/2 67/195/2 68/196/2
f 66/197/3 69/198/3 70/199/3 67/200/3
f 69/201/4 71/202/4 72/203/4 70/204/4
f 71/205/1 65/206/1 68/207/1 72/208/1
f 68/209/5 67/210/5 70/211/5 72/212/5
f 71/213/6 69/214/6 66/215/6 65/216/6
f 73/217/2 74/218/2 75/219/2 76/220/2
f 74/221/3 77/222/3 78/223/3 75/224/3
f 77/225/4 79/226/4 80/227/4 78/228/4
f 79/229/1 73/230/1 76/231/1 80/232/1
f 76/233/5 75/234/5 78/235/5 80/236/5
f 79/237/6 77/238/6 74/239/6 73/240/6
f 81/241/2 82/242/2 83/243/2 84/244/2
f 82/245/3 85/246/3 86/247/3 83/248/3
f 85/249/4 87/250/4 88/251/4 86/252/4
f 87/253/1 81/254/1 84/255/1 88/256/1
f 84/257/5 83/258/5 86/259/5 88/260/5
f 87/261/6 85/262/6 82/263/6 81/264/6
f 89/265/2 90/266/2 91/267/2 92/268/2
f 90/269/3 93/270/3 94/271/3 91/272/3
f 93/273/4 95/274/4 96/275/4 94/276/4
f 95/277/1 89/278/1 92/279/1 96/280/1
f 92/281/5 91/282/5 94/283/5 96/284/5
f 95/285/6 93/286/6 90/287/6 89/288/6
f 97/289/3 98/290/3 99/291/3 100/292/3
f 98/293/4 101/294/4 102/295/4 99/296/4
f 101/297/1 103/298/1 104/299/1 102/300/1
f 103/301/2 97/302/2 100/303/2 104/304/2
f 100/305/5 99/306/5 102/307/5 104/308/5
f 103/309/6 101/310/6 98/311/6 97/312/6
f 105/313/2 106/314/2 107/315/2 108/316/2
f 106/317/3 109/318/3 110/319/3 107/320/3
f 109/321/4 111/322/4 112/323/4 110/324/4
f 111/325/1 105/326/1 108/327/1 112/328/1
f 108/329/5 107/330/5 110/331/5 112/332/5
f 111/333/6 109/334/6 106/335/6 105/336/6
f 113/337/2 114/338/2 115/339/2 116/340/2
f 114/341/3 117/342/3 118/343/3 115/344/3
f 117/345/4 119/346/4 120/347/4 118/348/4
f 119/349/1 113/350/1 116/351/1 120/352/1
f 116/353/5 115/354/5 118/355/5 120/356/5
f 119/357/6 117/358/6 114/359/6 113/360/6
f 121/361/3 122/362/3 123/363/3 124/364/3
f 122/365/4 125/366/4 126/367/4 123/368/4
f 125/369/1 127/370/1 128/371/1 126/372/1
f 127/373/2 121/374/2 124/375/2 128/376/2
f 124/377/5 123/378/5 126/379/5 128/380/5
f 127/381/6 125/382/6 122/383/6 121/384/6
f 129/385/4 130/386/4 131/387/4 132/388/4
f 130/389/1 133/390/1 134/391/1 131/392/1
f 133/393/2 135/394/2 136/395/2 134/396/2
f 135/397/3 129/398/3 132/399/3 136/400/3
f 132/401/5 131/402/5 134/403/5 136/404/5
f 135/405/6 133/406/6 130/407/6 129/408/6
f 137/409/4 138/410/4 139/411/4 140/412/4
f 138/413/1 141/414/1 142/415/1 139/416/1
f 141/417/2 143/418/2 144/419/2 142/420/2
f 143/421/3 137/422/3 140/423/3 144/424/3
f 140/425/5 139/426/5 142/427/5 144/428/5
f 143/429/6 141/430/6 138/431/6 137/432/6
f 145/433/4 146/434/4 147/435/4 148/436/4
f 146/437/1 149/438/1 150/439/1 147/440/1
f 149/441/2 151/442/2 152/443/2 150/444/2
f 151/445/3 145/446/3 148/447/3 152/448/3
f 148/449/5 147/450/5 150/451/5 152/452/5
f 151/453/6 149/454/6 146/455/6 145/456/6
f 153/457/4 154/458/4 155/459/4 156/460/4
f 154/461/1 157/462/1 158/463/1 155/464/1
f 157/465/2 159/466/2 160/467/2 158/468/2
f 159/469/3 153/470/3 156/471/3 160/472/3
f 156/473/5 155/474/5 158/475/5 160/476/5
f 159/477/6 157/478/6 154/479/6 153/480/6
f 161/481/4 162/482/4 163/483/4 164/484/4
f 162/485/1 165/486/1 166/487/1 163/488/1
f 165/489/2 167/490/2 168/491/2 166/492/2
f 167/493/3 161/494/3 164/495/3 168/496/3
f 164/497/5 163/498/5 166/499/5 168/500/5
f 167/501/6 165/502/6 162/503/6 161/504/6
f 169/505/4 170/506/4 171/507/4 172/508/4
f 170/509/1 173/510/1 174/511/1 171/512/1
f 173/513/2 175/514/2 176/515/2 174/516/2
f 175/517/3 169/518/3 172/519/3 176/520/3
f 172/521/5 171/522/5 174/523/5 176/524/5
f 175/525/6 173/526/6 170/527/6 169/528/6
f 177/529/4 178/530/4 179/531/4 180/532/4
f 178/533/1 181/534/1 182/535/1 179/536/1
f 181/537/2 183/538/2 184/539/2 182/540/2
f 183/541/3 177/542/3 180/543/3 184/544/3
f 180/545/5 179/546/5 182/547/5 184/548/5
f 183/549/6 181/550/6 178/551/6 177/552/6
f 185/553/4 186/554/4 187/555/4 188/556/4
f 186/557/1 189/558/1 190/559/1 187/560/1
f 189/561/2 191/562/2 192/563/2 190/564/2
f 191/565/3 185/566/3 188/567/3 192/568/3
f 188/569/5 187/570/5 190/571/5 192/572/5
f 191/573/6 189/574/6 186/575/6 185/576/6
f 193/577/4 194/578/4 195/579/4 196/580/4
f 194/581/6 197/582/6 198/583/6 195/584/6
f 197/585/2 199/586/2 200/587/2 198/588/2
f 199/589/5 193/590/5 196/591/5 200/592/5
f 196/593/1 195/594/1 198/595/1 200/596/1
f 199/597/3 197/598/3 194/599/3 193/600/3
f 201/601/5 202/602/5 203/603/5 204/604/5
f 202/605/4 205/606/4 206/607/4 203/608/4
f 205/609/6 207/610/6 208/611/6 206/612/6
f 207/613/2 201/614/2 204/615/2 208/616/2
f 204/617/1 203/618/1 206/619/1 208/620/1
f 207/621/3 205/622/3 202/623/3 201/624/3
f 209/625/5 210/626/5 211/627/5 212/628/5
f 210/629/4 213/630/4 214/631/4 211/632/4
f 213/633/6 215/634/6 216/635/6 214/636/6
f 215/637/2 209/638/2 212/639/2 216/640/2
f 212/641/1 211/642/1 214/643/1 216/644/1
f 215/645/3 213/646/3 210/647/3 209/648/3
f 217/649/4 218/650/4 219/651/4 220/652/4
f 218/653/6 221/654/6 222/655/6 219/656/6
f 221/657/2 223/658/2 224/659/2 222/660/2
f 223/661/5 217/662/5 220/663/5 224/664/5
f 220/665/1 219/666/1 222/667/1 224/668/1
f 223/669/3 221/670/3 218/671/3 217/672/3
f 225/673/6 226/674/6 227/675/6 228/676/6
f 226/677/2 229/678/2 230/679/2 227/680/2
f 229/681/5 231/682/5 232/683/5 230/684/5
f 231/685/4 225/686/4 228/687/4 232/688/4
f 228/689/1 227/690/1 230/691/1 232/692/1
f 231/693/3 229/694/3 226/695/3 225/696/3
f 233/697/6 234/698/6 235/699/6 236/700/6
f 234/701/2 237/702/2 238/703/2 235/704/2
f 237/705/5 239/706/5 240/707/5 238/708/5
f 239/709/4 233/710/4 236/711/4 240/712/4
f 236/713/1 235/714/1 238/715/1 240/716/1
f 239/717/3 237/718/3 234/719/3 233/720/3
f 241/721/6 242/722/6 243/723/6 244/724/6
f 242/725/2 245/726/2 246/727/2 243/728/2
f 245/729/5 247/730/5 248/731/5 246/732/5
f 247/733/4 241/734/4 244/735/4 248/736/4
f 244/737/1 243/738/1 246/739/1 248/740/1
f 247/741/3 245/742/3 242/743/3 241/744/3
f 249/745/6 250/746/6 251/747/6 252/748/6
f 250/749/2 253/750/2 254/751/2 251/752/2
f 253/753/5 255/754/5 256/755/5 254/756/5
f 255/757/4 249/758/4 252/759/4 256/760/4
f 252/761/1 251/762/1 254/763/1 256/764/1
f 255/765/3 253/766/3 250/767/3 249/768/3
f 257/769/6 258/770/6 259/771/6 260/772/6
f 258/773/2 261/774/2 262/775/2 259/776/2
f 261/777/5 263/778/5 264/779/5 262/780/5
f 263/781/4 257/782/4 260/783/4 264/784/4
f 260/785/1 259/786/1 262/787/1 264/788/1
f 263/789/3 261/790/3 258/791/3 257/792/3
f 265/793/6 266/794/6 267/795/6 268/796/6
f 266/797/2 269/798/2 270/799/2 267/800/2
f 269/801/5 271/802/5 272/803/5 270/804/5
f 271/805/4 265/806/4 268/807/4 272/808/4
f 268/809/1 267/810/1 270/811/1 272/812/1
f 271/813/3 269/814/3 266/815/3 265/816/3
f 273/817/6 274/818/6 275/819/6 276/820/6
f 274/821/2 277/822/2 278/823/2 275/824/2
f 277/825/5 279/826/5 280/827/5 278/828/5
f 279/829/4 273/830/4 276/831/4 280/832/4
f 276/833/1 275/834/1 278/835/1 280/836/1
f 279/837/3 277/838/3 274/839/3 273/840/3
f 281/841/6 282/842/6 283/843/6 284/844/6
f 282/845/2 285/846/2 286/847/2 283/848/2
f 285/849/5 287/850/5 288/851/5 286/852/5
f 287/853/4 281/854/4 284/855/4 288/856/4
f 284/857/1 283/858/1 286/859/1 288/860/1
f 287/861/3 285/862/3 282/863/3 281/864/3
f 289/865/3 290/866/3 291/867/3 292/868/3
f 290/869/6 293/870/6 294/871/6 291/872/6
f 293/873/1 295/874/1 296/875/1 294/876/1
f 295/877/5 289/878/5 292/879/5 296/880/5
f 292/881/4 291/882/4 294/883/4 296/884/4
f 295/885/2 293/886/2 290/887/2 289/888/2
f 297/889/5 298/890/5 299/891/5 300/892/5
f 298/893/3 301/894/3 302/895/3 299/896/3
f 301/897/6 303/898/6 304/899/6 302/900/6
f 303/901/1 297/902/1 300/903/1 304/904/1
f 300/905/4 299/906/4 302/907/4 304/908/4
f 303/909/2 301/910/2 298/911/2 297/912/2
f 305/913/5 306/914/5 307/915/5 308/916/5
f 306/917/3 309/918/3 310/919/3 307/920/3
f 309/921/6 311/922/6 312/923/6 310/924/6
f 311/925/1 305/926/1 308/927/1 312/928/1
f 308/929/4 307/930/4 310/931/4 312/932/4
f 311/933/2 309/934/2 306/935/2 305/936/2
f 313/937/3 314/938/3 315/939/3 316/940/3
f 314/941/6 317/942/6 318/943/6 315/944/6
f 317/945/1 319/946/1 320/947/1 318/948/1
f 319/949/5 313/950/5 316/951/5 320/952/5
f 316/953/4 315/954/4 318/955/4 320/956/4
f 319/957/2 317/958/2 314/959/2 313/960/2
f 321/961/6 322/962/6 323/963/6 324/964/6
f 322/965/1 325/966/1 326/967/1 323/968/1
f 325/969/5 327/970/5 328/971/5 326/972/5
f 327/973/3 321/974/3 324/975/3 328/976/3
f 324/977/4 323/978/4 326/979/4 328/980/4
f 327/981/2 325/982/2 322/983/2 321/984/2
f 329/985/6 330/986/6 331/987/6 332/988/6
f 330/989/1 333/990/1 334/991/1 331/992/1
f 333/993/5 335/994/5 336/995/5 334/996/5
f 335/997/3 329/998/3 332/999/3 336/1000/3
f 332/1001/4 331/1002/4 334/1003/4 336/1004/4
f 335/1005/2 333/1006/2 330/1007/2 329/1008/2
f 337/1009/6 338/1010/6 339/1011/6 340/1012/6
f 338/1013/1 341/1014/1 342/1015/1 339/1016/1
f 341/1017/5 343/1018/5 344/1019/5 342/1020/5
f 343/1021/3 337/1022/3 340/1023/3 344/1024/3
f 340/1025/4 339/1026/4 342/1027/4 344/1028/4
f 343/1029/2 341/1030/2 338/1031/2 337/1032/2
f 345/1033/6 346/1034/6 347/1035/6 348/1036/6
f 346/1037/1 349/1038/1 350/1039/1 347/1040/1
f 349/1041/5 351/1042/5 352/1043/5 350/1044/5
f 351/1045/3 345/1046/3 348/1047/3 352/1048/3
f 348/1049/4 347/1050/4 350/1051/4 352/1052/4
f 351/1053/2 349/1054/2 346/1055/2 345/1056/2
f 353/1057/6 354/1058/6 355/1059/6 356/1060/6
f 354/1061/1 357/1062/1 358/1063/1 355/1064/1
f 357/1065/5 359/1066/5 360/1067/5 358/1068/5
f 359/1069/3 353/1070/3 356/1071/3 360/1072/3
f 356/1073/4 355/1074/4 358/1075/4 360/1076/4
f 359/1077/2 357/1078/2 354/1079/2 353/1080/2
f 361/1081/6 362/1082/6 363/1083/6 364/1084/6
f 362/1085/1 365/1086/1 366/1087/1 363/1088/1
f 365/1089/5 367/1090/5 368/1091/5 366/1092/5
f 367/1093/3 361/1094/3 364/1095/3 368/1096/3
f 364/1097/4 363/1098/4 366/1099/4 368/1100/4
f 367/1101/2 365/1102/2 362/1103/2 361/1104/2
f 369/1105/6 370/1106/6 371/1107/6 372/1108/6
f 370/1109/1 373/1110/1 374/1111/1 371/1112/1
f 373/1113/5 375/1114/5 376/1115/5 374/1116/5
f 375/1117/3 369/1118/3 372/1119/3 376/1120/3
f 372/1121/4 371/1122/4 374/1123/4 376/1124/4
f 375/1125/2 373/1126/2 370/1127/2 369/1128/2
f 377/1129/6 378/1130/6 379/1131/6 380/1132/6
f 378/1133/1 381/1134/1 382/1135/1 379/1136/1
f 381/1137/5 383/1138/5 384/1139/5 382/1140/5
f 383/1141/3 377/1142/3 380/1143/3 384/1144/3
f 380/1145/4 379/1146/4 382/1147/4 384/1148/4
f 383/1149/2 381/1150/2 378/1151/2 377/1152/2
f 385/1153/1 386/1154/1 387/1155/1 388/1156/1
f 386/1157/6 389/1158/6 390/1159/6 387/1160/6
f 389/1161/3 391/1162/3 392/1163/3 390/1164/3
f 391/1165/5 385/1166/5 388/1167/5 392/1168/5
f 388/1169/2 387/1170/2 390/1171/2 392/1172/2
f 391/1173/4 389/1174/4 386/1175/4 385/1176/4
f 393/1177/5 394/1178/5 395/1179/5 396/1180/5
f 394/1181/1 397/1182/1 398/1183/1 395/1184/1
f 397/1185/6 399/1186/6 400/1187/6 398/1188/6
f 399/1189/3 393/1190/3 396/1191/3 400/1192/3
f 396/1193/2 395/1194/2 398/1195/2 400/1196/2
f 399/1197/4 397/1198/4 394/1199/4 393/1200/4
f 401/1201/5 402/1202/5 403/1203/5 404/1204/5
f 402/1205/1 405/1206/1 406/1207/1 403/1208/1
f 405/1209/6 407/1210/6 408/1211/6 406/1212/6
f 407/1213/3 401/1214/3 404/1215/3 408/1216/3
f 404/1217/2 403/1218/2 406/1219/2 408/1220/2
f 407/1221/4 405/1222/4 402/1223/4 401/1224/4
f 409/1225/1 410/1226/1 411/1227/1 412/1228/1
f 410/1229/6 413/1230/6 414/1231/6 411/1232/6
f 413/1233/3 415/1234/3 416/1235/3 414/1236/3
f 415/1237/5 409/1238/5 412/1239/5 416/1240/5
f 412/1241/2 411/1242/2 414/1243/2 416/1244/2
f 415/1245/4 413/1246/4 410/1247/4 409/1248/4
f 417/1249/6 418/1250/6 419/1251/6 420/1252/6
f 418/1253/3 421/1254/3 422/1255/3 419/1256/3
f 421/1257/5 423/1258/5 424/1259/5 422/1260/5
f 423/1261/1 417/1262/1 420/1263/1 424/1264/1
f 420/1265/2 419/1266/2 422/1267/2 424/1268/2
f 423/1269/4 421/1270/4 418/1271/4 417/1272/4
f 425/1273/6 426/1274/6 427/1275/6 428/1276/6
f 426/1277/3 429/1278/3 430/1279/3 427/1280/3
f 429/1281/5 431/1282/5 432/1283/5 430/1284/5
f 431/1285/1 425/1286/1 428/1287/1 432/1288/1
f 428/1289/2 427/1290/2 430/1291/2 432/1292/2
f 431/1293/4 429/1294/4 426/1295/4 425/1296/4
f 433/1297/6 434/1298/6 435/1299/6 436/1300/6
f 434/1301/3 437/1302/3 438/1303/3 435/1304/3
f 437/1305/5 439/1306/5 440/1307/5 438/1308/5
f 439/1309/1 433/1310/1 436/1311/1 440/1312/1
f 436/1313/2 435/1314/2 438/1315/2 440/1316/2
f 439/1317/4 437/1318/4 434/1319/4 433/1320/4
f 441/1321/6 442/1322/6 443/1323/6 444/1324/6
f 442/1325/3 445/1326/3 446/1327/3 443/1328/3
f 445/1329/5 447/1330/5 448/1331/5 446/1332/5
f 447/1333/1 441/1334/1 444/1335/1 448/1336/1
f 444/1337/2 443/1338/2 446/1339/2 448/1340/2
f 447/1341/4 445/1342/4 442/1343/4 441/1344/4
f 449/1345/6 450/1346/6 451/1347/6 452/1348/6
f 450/1349/3 453/1350/3 454/1351/3 451/1352/3
f 453/1353/5 455/1354/5 456/1355/5 454/1356/5
f 455/1357/1 449/1358/1 452/1359/1 456/1360/1
f 452/1361/2 451/1362/2 454/1363/2 456/1364/2
f 455/1365/4 453/1366/4 450/1367/4 449/1368/4
f 457/1369/6 458/1370/6 459/1371/6 460/1372/6
f 458/1373/3 461/1374/3 462/1375/3 459/1376/3
f 461/1377/5 463/1378/5 464/1379/5 462/1380/5
f 463/1381/1 457/1382/1 460/1383/1 464/1384/1
f 460/1385/2 459/1386/2 462/1387/2 464/1388/2
f 463/1389/4 461/1390/4 458/1391/4 457/1392/4
f 465/1393/6 466/1394/6 467/1395/6 468/1396/6
f 466/1397/3 469/1398/3 470/1399/3 467/1400/3
f 469/1401/5 471/1402/5 472/1403/5 470/1404/5
f 471/1405/1 465/1406/1 468/1407/1 472/1408/1
f 468/1409/2 467/1410/2 470/1411/2 472/1412/2
f 471/1413/4 469/1414/4 466/1415/4 465/1416/4
f 473/1417/6 474/1418/6 475/1419/6 476/1420/6
f 474/1421/3 477/1422/3 478/1423/3 475/1424/3
f 477/1425/5 479/1426/5 480/1427/5 478/1428/5
f 479/1429/1 473/1430/1 476/1431/1 480/1432/1
f 476/1433/2 475/1434/2 478/1435/2 480/1436/2
f 479/1437/4 477/1438/4 474/1439/4 473/1440/4
f 481/1441/2 482/1442/2 483/1443/2 484/1444/2
f 482/1445/6 485/1446/6 486/1447/6 483/1448/6
f 485/1449/4 487/1450/4 488/1451/4 486/1452/4
f 487/1453/5 481/1454/5 484/1455/5 488/1456/5
f 484/1457/3 483/1458/3 486/1459/3 488/1460/3
f 487/1461/1 485/1462/1 482/1463/1 481/1464/1
f 489/1465/5 490/1466/5 491/1467/5 492/1468/5
f 490/1469/2 493/1470/2 494/1471/2 491/1472/2
f 493/1473/6 495/1474/6 496/1475/6 494/1476/6
f 495/1477/4 489/1478/4 492/1479/4 496/1480/4
f 492/1481/3 491/1482/3 494/1483/3 496/1484/3
f 495/1485/1 493/1486/1 490/1487/1 489/1488/1
f 497/1489/5 498/1490/5 499/1491/5 500/1492/5
f 498/1493/2 501/1494/2 502/1495/2 499/1496/2
f 501/1497/6 503/1498/6 504/1499/6 502/1500/6
f 503/1501/4 497/1502/4 500/1503/4 504/1504/4
f 500/1505/3 499/1506/3 502/1507/3 504/1508/3
f 503/1509/1 501/1510/1 498/1511/1 497/1512/1
f 505/1513/2 506/1514/2 507/1515/2 508/1516/2
f 506/1517/6 509/1518/6 510/1519/6 507/1520/6
f 509/1521/4 511/1522/4 512/1523/4 510/1524/4
f 511/1525/5 505/1526/5 508/1527/5 512/1528/5
f 508/1529/3 507/1530/3 510/1531/3 512/1532/3
f 511/1533/1 509/1534/1 506/1535/1 505/1536/1
f 513/1537/6 514/1538/6 515/1539/6 516/1540/6
f 514/1541/4 517/1542/4 518/1543/4 515/1544/4
f 517/1545/5 519/1546/5 520/1547/5 518/1548/5
f 519/1549/2 513/1550/2 516/1551/2 520/1552/2
f 516/1553/3 515/1554/3 518/1555/3 520/1556/3
f 519/1557/1 517/1558/1 514/1559/1 513/1560/1
f 521/1561/6 522/1562/6 523/1563/6 524/1564/6
f 522/1565/4 525/1566/4 526/1567/4 523/1568/4
f 525/1569/5 527/1570/5 528/1571/5 526/1572/5
f 527/1573/2 521/1574/2 524/1575/2 528/1576/2
f 524/1577/3 523/1578/3 526/1579/3 528/1580/3
f 527/1581/1 525/1582/1 522/1583/1 521/1584/1
f 529/1585/6 530/1586/6 531/1587/6 532/1588/6
f 530/1589/4 533/1590/4 534/1591/4 531/1592/4
f 533/1593/5 535/1594/5 536/1595/5 534/1596/5
f 535/1597/2 529/1598/2 532/1599/2 536/1600/2
f 532/1601/3 531/1602/3 534/1603/3 536/1604/3
f 535/1605/1 533/1606/1 530/1607/1 529/1608/1
f 537/1609/6 538/1610/6 539/1611/6 540/1612/6
f 538/1613/4 541/1614/4 542/1615/4 539/1616/4
f 541/1617/5 543/1618/5 544/1619/5 542/1620/5
f 543/1621/2 537/1622/2 540/1623/2 544/1624/2
f 540/1625/3 539/1626/3 542/1627/3 544/1628/3
f 543/1629/1 541/1630/1 538/1631/1 537/1632/1
f 545/1633/6 546/1634/6 547/1635/6 548/1636/6
f 546/1637/4 549/1638/4 550/1639/4 547/1640/4
f 549/1641/5 551/1642/5 552/1643/5 550/1644/5
f 551/1645/2 545/1646/2 548/1647/2 552/1648/2
f 548/1649/3 547/1650/3 550/1651/3 552/1652/3
f 551/1653/1 549/1654/1 546/1655/1 545/1656/1
f 553/1657/6 554/1658/6 555/1659/6 556/1660/6
f 554/1661/4 557/1662/4 558/1663/4 555/1664/4
f 557/1665/5 559/1666/5 560/1667/5 558/1668/5
f 559/1669/2 553/1670/2 556/1671/2 560/1672/2
f 556/1673/3 555/1674/3 558/1675/3 560/1676/3
f 559/1677/1 557/1678/1 554/1679/1 553/1680/1
f 561/1681/6 562/1682/6 563/1683/6 564/1684/6
f 562/1685/4 565/1686/4 566/1687/4 563/1688/4
f 565/1689/5 567/1690/5 568/1691/5 566/1692/5
f 567/1693/2 561/1694/2 564/1695/2 568/1696/2
f 564/1697/3 563/1698/3 566/1699/3 568/1700/3
f 567/1701/1 565/1702/1 562/1703/1 561/1704/1
f 569/1705/6 570/1706/6 571/1707/6 572/1708/6
f 570/1709/4 573/1710/4 574/1711/4 571/1712/4
f 573/1713/5 575/1714/5 576/1715/5 574/1716/5
f 575/1717/2 569/1718/2 572/1719/2 576/1720/2
f 572/1721/3 571/1722/3 574/1723/3 576/1724/3
f 575/1725/1 573/1726/1 570/1727/1 569/1728/1
