# Blender v2.79 (sub 0) OBJ File: ''
# www.blender.org
mtllib decal.mtl
o Cube_Cube.001
v -1.000000 -0.045418 1.000000
v -1.000000 0.045418 1.000000
v -1.000000 0.045418 -1.000000
v -1.000000 -0.045418 -1.000000
v 1.000000 0.045418 -1.000000
v 1.000000 -0.045418 -1.000000
v 1.000000 0.045418 1.000000
v 1.000000 -0.045418 1.000000
vt 0.909075 0.010028
vt 0.932829 0.010028
vt 0.932829 0.033782
vt 0.909075 0.033782
vt 0.843125 0.031696
vt 0.956875 0.031696
vt 0.956875 0.145447
vt 0.843125 0.145447
vt 0.954952 0.055905
vt 0.921238 0.055905
vt 0.921238 0.022190
vt 0.954952 0.022190
vt 0.913825 0.007159
vt 0.981413 0.007159
vt 0.981413 0.074746
vt 0.913825 0.074746
vt 0.000000 0.000000
vt 0.788571 0.032381
vt 0.457143 0.087619
vt 0.064762 0.064762
vt 0.000000 0.000000
vt 1.000000 0.000000
vt 1.000000 1.000000
vt 0.000000 1.000000
vn -1.0000 0.0000 0.0000
vn 0.0000 0.0000 -1.0000
vn 1.0000 0.0000 0.0000
vn 0.0000 0.0000 1.0000
vn 0.0000 -1.0000 -0.0000
vn 0.0000 1.0000 0.0000
usemtl None
s 1
f 1/1/1 2/2/1 3/3/1 4/4/1
f 4/5/2 3/6/2 5/7/2 6/8/2
f 6/9/3 5/10/3 7/11/3 8/12/3
f 8/13/4 7/14/4 2/15/4 1/16/4
f 4/17/5 6/18/5 8/19/5 1/20/5
f 5/21/6 3/22/6 2/23/6 7/24/6
