# Blender v2.79 (sub 0) OBJ File: ''
# www.blender.org
mtllib heart_box.mtl
o Cube.004
v -0.801097 -0.999498 0.801096
v -0.801097 -0.999498 -0.801097
v 0.801097 -0.999498 -0.801097
v 0.801097 -0.999498 0.801096
v -0.801097 0.602695 0.801096
v 0.801097 0.602695 0.801097
v 0.801097 0.602695 -0.801096
v -0.801096 0.602695 -0.801097
vt 0.000000 0.666667
vt 0.000000 0.333334
vt 0.333333 0.333333
vt 0.333333 0.666667
vt 1.000000 0.000000
vt 1.000000 0.333333
vt 0.666667 0.333333
vt 0.666667 0.000000
vt 0.666667 0.000000
vt 0.666667 0.333333
vt 0.333333 0.333333
vt 0.333333 0.000000
vt 0.333333 0.666667
vt 0.666667 0.666667
vt 0.000000 0.333333
vt 0.000000 0.000000
vt 0.333333 0.000000
vt 0.333333 0.333333
vt 0.333333 0.666667
vt 0.333333 1.000000
vt 0.000000 1.000000
vt 0.000000 0.666667
vn 0.0000 -1.0000 -0.0000
vn -0.0000 1.0000 0.0000
vn -1.0000 0.0000 -0.0000
vn 0.0000 -0.0000 -1.0000
vn 1.0000 0.0000 0.0000
vn -0.0000 0.0000 1.0000
usemtl Heart
s 1
f 1/1/1 2/2/1 3/3/1 4/4/1
f 5/5/2 6/6/2 7/7/2 8/8/2
f 1/9/3 5/10/3 8/11/3 2/12/3
f 2/13/4 8/11/4 7/7/4 3/14/4
f 3/15/5 7/16/5 6/17/5 4/18/5
f 5/19/6 1/20/6 4/21/6 6/22/6
