# Blender v2.79 (sub 0) OBJ File: ''
# www.blender.org
mtllib red_trap_door.mtl
o Cube_Cube.001
v -1.000000 -0.998685 1.000000
v -1.000000 -0.957346 1.000000
v -1.000000 -0.957346 -1.000000
v -1.000000 -0.998685 -1.000000
v 1.000000 -0.957346 -1.000000
v 1.000000 -0.998685 -1.000000
v 1.000000 -0.957346 1.000000
v 1.000000 -0.998685 1.000000
vt 0.000000 0.000000
vt 1.000000 0.000000
vt 1.000000 1.000000
vt 0.000000 1.000000
vt 0.000000 0.000000
vt 1.000000 0.000000
vt 1.000000 1.000000
vt 0.000000 1.000000
vt 0.000000 0.000000
vt 1.000000 0.000000
vt 1.000000 1.000000
vt 0.000000 1.000000
vt 0.000000 0.000000
vt 1.000000 0.000000
vt 1.000000 1.000000
vt 0.000000 1.000000
vt 1.000000 0.000000
vt 1.000000 1.000000
vt 0.000000 0.000000
vt 0.000000 1.000000
vn -1.0000 0.0000 0.0000
vn 0.0000 0.0000 -1.0000
vn 1.0000 0.0000 0.0000
vn 0.0000 0.0000 1.0000
vn 0.0000 -1.0000 -0.0000
vn 0.0000 1.0000 0.0000
usemtl None
s 1
f 1/1/1 2/2/1 3/3/1 4/4/1
f 4/5/2 3/6/2 5/7/2 6/8/2
f 6/9/3 5/10/3 7/11/3 8/12/3
f 8/13/4 7/14/4 2/15/4 1/16/4
f 4/5/5 6/17/5 8/18/5 1/16/5
f 5/19/6 3/6/6 2/15/6 7/20/6
