# Blender v2.79 (sub 0) OBJ File: ''
# www.blender.org
mtllib yellow_slime.mtl
o Slime
v 0.722699 -0.538898 -0.091757
v 0.765039 -0.538915 -0.291952
v 0.927630 -0.380910 -0.285262
v 0.872152 -0.380887 -0.025864
v 0.982662 -0.229851 -0.280211
v 0.918778 -0.229825 -0.000117
v 0.988373 -0.062310 -0.278054
v 0.919745 -0.062284 0.004810
v 0.954372 0.119355 -0.275934
v 0.884830 0.119382 -0.003002
v 0.882423 0.297705 -0.274092
v 0.816620 0.297730 -0.022824
v 0.781418 0.459918 -0.272679
v 0.723054 0.459939 -0.052666
v 0.661072 0.599838 -0.271717
v 0.611909 0.599855 -0.089901
v 0.525540 0.713523 -0.271121
v 0.485861 0.713535 -0.132011
v 0.388761 0.791295 -0.264320
v 0.337990 0.797588 -0.173620
v 0.631989 -0.526690 0.079627
v 0.721718 -0.380859 0.183651
v 0.752348 -0.229796 0.224289
v 0.745401 -0.062253 0.230788
v 0.712407 0.119411 0.214399
v 0.656543 0.297757 0.176700
v 0.582625 0.459963 0.121439
v 0.494192 0.599875 0.053377
v 0.384404 0.713552 -0.019663
v 0.265992 0.791320 -0.085654
v 0.272597 0.600995 0.169133
v 0.226243 0.706117 0.064910
v 0.139751 0.590497 0.199695
v 0.308612 0.476389 0.255827
v 0.163115 0.455086 0.305197
v 0.259077 0.382235 0.335006
v 0.173991 0.368657 0.356527
v 0.262769 0.307998 0.369822
v 0.183207 0.284952 0.391057
v 0.284177 0.217964 0.398664
v 0.191162 0.195402 0.421210
v 0.285574 0.128978 0.425754
v 0.198484 0.104595 0.444848
v 0.304885 0.035469 0.441133
v 0.204541 0.012380 0.460772
v 0.302769 -0.054658 0.452449
v 0.209786 -0.078199 0.467173
v 0.309874 -0.142670 0.450856
v 0.212737 -0.149755 0.465960
v 0.010875 0.706134 0.096095
v -0.151571 0.599930 0.190759
v -0.016318 0.587621 0.216348
v 0.009863 0.466374 0.306510
v 0.078572 0.382250 0.357382
v 0.090115 0.299277 0.393883
v 0.094248 0.210458 0.425380
v 0.098064 0.119826 0.450651
v 0.101248 0.027789 0.468274
v 0.104086 -0.063395 0.476421
v 0.115055 -0.149747 0.474240
v 0.199766 -0.236555 0.452032
v 0.398418 -0.236851 0.415391
v 0.427640 -0.062367 0.412495
v 0.576131 -0.218349 0.340110
v 0.591778 -0.044723 0.331586
v -0.190623 -0.538804 0.237513
v -0.000119 -0.625046 0.062262
v -0.000112 -0.516128 0.282884
v -0.212121 -0.380774 0.389624
v -0.000102 -0.354273 0.423939
v -0.199956 -0.236528 0.452032
v -0.000093 -0.225208 0.467346
v -0.106668 -0.158247 0.474416
v -0.000087 -0.135549 0.479895
v -0.112057 -0.069634 0.475991
v -0.000082 -0.048593 0.479630
v -0.101403 0.027802 0.468274
v -0.000077 0.043194 0.469709
v -0.098208 0.119839 0.450651
v -0.000071 0.135056 0.450422
v -0.094380 0.210470 0.425380
v -0.000066 0.225513 0.423603
v -0.081924 0.290846 0.397859
v -0.000060 0.313600 0.390907
v -0.086618 0.376439 0.359700
v -0.000056 0.382256 0.360085
v -0.456637 -0.538791 0.163191
v -0.342278 -0.542356 0.214249
v -0.402252 -0.407277 0.339808
v -0.563481 -0.380755 0.289099
v -0.413957 -0.246465 0.407779
v -0.586371 -0.229688 0.333907
v -0.419490 -0.075178 0.417832
v -0.577894 -0.062147 0.339699
v -0.398078 0.106561 0.395852
v -0.551722 0.119514 0.317730
v -0.367931 0.285992 0.344871
v -0.510207 0.297850 0.270144
v -0.317511 0.454752 0.266783
v -0.455324 0.460044 0.201645
v -0.291334 0.587639 0.173376
v -0.395547 0.599943 0.114631
v -0.206455 0.706147 0.070214
v -0.388300 0.706155 -0.014474
v -0.162855 0.797632 -0.056322
v -0.285465 0.797637 -0.119833
v -0.735442 -0.528047 -0.082350
v -0.590137 -0.538786 0.087447
v -0.714995 -0.380752 0.191161
v -0.883643 -0.354240 -0.013597
v -0.749275 -0.229683 0.226073
v -0.919965 -0.203887 0.002796
v -0.744923 -0.062142 0.230122
v -0.916662 -0.032557 0.003719
v -0.715316 0.119517 0.211323
v -0.877738 0.149958 -0.008031
v -0.662348 0.297854 0.171528
v -0.806132 0.326483 -0.031276
v -0.590070 0.460047 0.114659
v -0.709855 0.485342 -0.063748
v -0.522393 0.587646 0.044990
v -0.596345 0.621177 -0.102775
v -0.467778 0.730170 -0.145997
v -0.350173 0.798996 -0.189813
v -0.388821 0.791356 -0.264319
v -0.209487 0.841550 -0.271611
v -0.371098 0.786252 -0.376255
v -0.525611 0.713602 -0.271122
v -0.510435 0.697023 -0.425370
v -0.661157 0.599936 -0.271715
v -0.633872 0.578685 -0.467466
v -0.781520 0.460035 -0.272677
v -0.742332 0.434716 -0.504682
v -0.882543 0.297839 -0.274089
v -0.831837 0.269183 -0.534504
v -0.954515 0.119500 -0.275932
v -0.894133 0.089028 -0.554306
v -0.988539 -0.062162 -0.278052
v -0.922094 -0.091779 -0.562094
v -0.982847 -0.229705 -0.280210
v -0.914674 -0.255530 -0.557147
v -0.927834 -0.380771 -0.285262
v -0.855001 -0.407309 -0.531383
v -0.765263 -0.538802 -0.310867
v -0.695122 -0.553856 -0.481873
v -0.018633 -0.538895 -0.799095
v -0.344559 -0.538866 -0.754371
v -0.403871 -0.380857 -0.901109
v -0.006212 -0.380890 -0.955147
v -0.411178 -0.229796 -0.953942
v 0.000743 -0.229832 -1.010237
v -0.399640 -0.062258 -0.961870
v 0.002982 -0.062291 -1.017920
v -0.376890 0.119408 -0.939112
v 0.004497 0.119376 -0.992402
v -0.345468 0.297754 -0.887870
v 0.005772 0.297725 -0.936171
v -0.306178 0.459959 -0.813233
v 0.007174 0.459933 -0.854797
v -0.258527 0.599871 -0.721585
v 0.008762 0.599850 -0.755198
v -0.201917 0.713551 -0.618830
v 0.010365 0.713533 -0.643725
v -0.140630 0.791317 -0.520370
v 0.006268 0.797587 -0.522859
v 0.314498 -0.538917 -0.764579
v 0.392378 -0.380916 -0.906190
v 0.409991 -0.229858 -0.955152
v 0.402723 -0.062317 -0.961420
v 0.383980 0.119352 -0.937031
v 0.355954 0.297703 -0.884371
v 0.319376 0.459911 -0.808646
v 0.274089 0.599833 -0.716255
v 0.219999 0.713521 -0.613037
v 0.162794 0.797578 -0.501070
v 0.566746 -0.538928 -0.656080
v 0.689035 -0.380927 -0.761694
v 0.722414 -0.229870 -0.797071
v 0.718176 -0.062330 -0.800974
v 0.689923 0.119340 -0.781427
v 0.639363 0.297690 -0.740357
v 0.570143 0.459901 -0.681809
v 0.485796 0.599826 -0.610691
v 0.387781 0.713514 -0.531448
v 0.285402 0.797573 -0.437556
v 0.714138 -0.538927 -0.490116
v 0.866084 -0.380924 -0.543652
v 0.915489 -0.229866 -0.560063
v 0.918682 -0.062325 -0.561008
v 0.886755 0.119342 -0.549281
v 0.821106 0.297692 -0.526055
v 0.728929 0.459904 -0.493603
v 0.618139 0.599827 -0.454592
v 0.492210 0.713515 -0.411384
v 0.369950 0.791290 -0.359502
v 0.205561 0.843083 -0.297875
v 0.151293 0.841984 -0.391427
v 0.029600 0.847783 -0.398156
v -0.000027 0.863765 -0.278699
v -0.124949 0.843465 -0.390009
v -0.261787 0.797612 -0.454501
v -0.375377 0.713567 -0.542152
v -0.474451 0.599894 -0.620545
v -0.559863 0.459985 -0.690289
v -0.631415 0.297784 -0.746825
v -0.685968 0.119441 -0.785274
v -0.718893 -0.062223 -0.801806
v -0.726779 -0.229761 -0.794839
v -0.698757 -0.380823 -0.752303
v -0.584624 -0.538840 -0.637218
v 0.142910 0.841399 -0.169916
v -0.000120 -0.665312 -0.397538
v 0.225472 -0.663881 -0.385518
v 0.207312 -0.664690 -0.190131
v -0.000121 -0.663844 -0.127411
v 0.217151 -0.629780 0.018714
v 0.190395 -0.538833 0.232650
v 0.211914 -0.380805 0.388813
v -0.151532 0.466386 0.298566
v -0.172488 0.382267 0.350531
v -0.252732 0.375480 0.339743
v -0.174441 0.305326 0.383973
v -0.264642 0.290858 0.376389
v -0.189345 0.210478 0.416597
v -0.285612 0.202961 0.403372
v -0.196917 0.119848 0.441361
v -0.287090 0.110754 0.430023
v -0.203222 0.027809 0.458679
v -0.306026 0.020117 0.443271
v -0.218954 -0.054617 0.465281
v -0.303855 -0.072365 0.453123
v -0.212368 -0.135535 0.466339
v -0.319166 -0.149719 0.448861
v -0.217390 -0.629748 0.019409
v -0.383966 -0.630082 -0.040885
v -0.463612 -0.634741 -0.145716
v -0.531579 -0.630086 -0.257640
v -0.479339 -0.634756 -0.379213
v -0.410954 -0.630112 -0.492614
v -0.232027 -0.634787 -0.553777
v -0.036008 -0.630150 -0.602229
v 0.180649 -0.634820 -0.567151
v 0.370990 -0.630175 -0.522269
v 0.463377 -0.634830 -0.411501
v 0.531343 -0.630170 -0.299578
v 0.479102 -0.634813 -0.178003
v 0.413790 -0.625087 -0.045558
v 0.481511 -0.538861 0.150279
v 0.568452 -0.380840 0.285337
v 0.548912 0.119431 0.319269
v 0.505309 0.297775 0.272734
v 0.449146 0.459979 0.205039
v 0.374007 0.599888 0.125364
v 0.140567 0.791332 -0.037019
v -0.006331 0.797623 -0.034530
v -0.029656 0.847806 -0.159240
v -0.151349 0.842023 -0.165970
v 0.322533 -0.662722 -0.278606
v -0.225712 -0.663846 -0.385518
v -0.322774 -0.662674 -0.278607
v -0.207554 -0.664660 -0.190131
v 0.410744 -0.380823 0.353143
v 0.367479 -0.526660 0.223616
v 0.392872 0.132597 0.390878
v 0.360762 0.310479 0.336513
v 0.159070 0.356425 0.400371
v 0.178965 0.361060 0.383085
v 0.191615 0.366394 0.391228
v 0.185199 0.372431 0.400440
v 0.213105 0.404584 0.366970
v 0.198981 0.415275 0.383283
v 0.223142 0.481550 0.318377
v 0.204379 0.494713 0.338464
v 0.213115 0.558516 0.269783
v 0.195589 0.568713 0.285341
v 0.191629 0.596708 0.245528
v 0.178980 0.602045 0.253671
v 0.159085 0.606682 0.236386
v 0.159085 0.606017 0.253297
v 0.135300 0.599466 0.254021
v 0.159085 0.581616 0.283183
v 0.119174 0.558704 0.291904
v 0.159080 0.514192 0.337594
v 0.113777 0.480698 0.347653
v 0.159074 0.431057 0.385518
v 0.122568 0.405266 0.389846
v 0.159071 0.377926 0.404532
v 0.137220 0.369985 0.403136
v 0.126526 0.368792 0.394878
v 0.132942 0.362754 0.385665
v 0.105041 0.406280 0.369544
v 0.119164 0.395589 0.353232
v 0.095014 0.481560 0.318377
v 0.113777 0.468396 0.298290
v 0.105050 0.556840 0.267211
v 0.122578 0.546643 0.251652
v 0.126540 0.594323 0.241880
v 0.139189 0.588985 0.233737
v 0.163490 0.587472 0.231433
v 0.185211 0.590672 0.236317
v 0.195578 0.394390 0.351412
v 0.204376 0.468390 0.298291
v 0.198990 0.547828 0.253472
v 0.156665 0.390665 0.345723
v 0.154663 0.359552 0.380782
v 0.159078 0.462939 0.289970
v 0.161488 0.542910 0.245962
v -0.158306 0.356783 0.400261
v -0.138409 0.361418 0.382974
v -0.125762 0.366754 0.391118
v -0.132177 0.372790 0.400329
v -0.104270 0.404943 0.366860
v -0.118394 0.415634 0.383172
v -0.094233 0.481908 0.318266
v -0.112997 0.495073 0.338354
v -0.104261 0.558875 0.269673
v -0.121787 0.569070 0.285231
v -0.125747 0.597068 0.245416
v -0.138394 0.602404 0.253558
v -0.158291 0.607045 0.236274
v -0.158290 0.606378 0.253184
v -0.182076 0.599827 0.253910
v -0.158292 0.581974 0.283073
v -0.198201 0.559061 0.291794
v -0.158295 0.514550 0.337485
v -0.203598 0.481056 0.347543
v -0.158300 0.431415 0.385406
v -0.194808 0.405626 0.389736
v -0.158305 0.378287 0.404422
v -0.180156 0.370344 0.403026
v -0.190848 0.369151 0.394766
v -0.184434 0.363114 0.385556
v -0.212335 0.406640 0.369434
v -0.198211 0.395948 0.353122
v -0.222361 0.481918 0.318267
v -0.203597 0.468753 0.298179
v -0.212324 0.557195 0.267100
v -0.194797 0.546999 0.251541
v -0.190833 0.594680 0.241768
v -0.178187 0.589345 0.233626
v -0.158292 0.591274 0.230134
v -0.134505 0.587989 0.235852
v -0.154506 0.547484 0.244172
v -0.114810 0.543008 0.256818
v -0.121798 0.394751 0.351302
v -0.112998 0.468748 0.298180
v -0.160709 0.391024 0.345610
v -0.162712 0.359910 0.380670
v -0.158298 0.463299 0.289859
vt 0.818930 0.470330
vt 0.760760 0.516370
vt 0.775500 0.613310
vt 0.851460 0.553330
vt 0.765860 0.668790
vt 0.845350 0.604500
vt 0.743080 0.726150
vt 0.822510 0.660320
vt 0.707600 0.778190
vt 0.783760 0.714170
vt 0.662610 0.819250
vt 0.732670 0.760280
vt 0.612690 0.847490
vt 0.674170 0.796040
vt 0.561430 0.864030
vt 0.612250 0.821560
vt 0.510610 0.868780
vt 0.549210 0.836000
vt 0.459730 0.859700
vt 0.485230 0.837060
vt 0.842700 0.407050
vt 0.884620 0.472820
vt 0.878660 0.517670
vt 0.854040 0.570520
vt 0.812890 0.626270
vt 0.759260 0.679160
vt 0.697640 0.725230
vt 0.631380 0.762810
vt 0.562760 0.790010
vt 0.492810 0.804540
vt 0.612700 0.693710
vt 0.546440 0.735190
vt 0.584590 0.658000
vt 0.676730 0.643190
vt 0.648140 0.599110
vt 0.695230 0.589290
vt 0.678210 0.566880
vt 0.721720 0.560610
vt 0.703770 0.536930
vt 0.748110 0.528750
vt 0.729380 0.504060
vt 0.772210 0.498050
vt 0.752700 0.472350
vt 0.793730 0.467110
vt 0.773570 0.440670
vt 0.811880 0.437860
vt 0.791080 0.410690
vt 0.825200 0.411470
vt 0.803970 0.383930
vt 0.501570 0.678800
vt 0.515950 0.592850
vt 0.556470 0.622290
vt 0.610460 0.559610
vt 0.659340 0.545400
vt 0.683970 0.514170
vt 0.708810 0.480300
vt 0.731350 0.447580
vt 0.751570 0.415170
vt 0.768440 0.384450
vt 0.780890 0.357320
vt 0.813350 0.358940
vt 0.854690 0.415780
vt 0.829100 0.466850
vt 0.866680 0.466730
vt 0.841570 0.518680
vt 0.696140 0.195830
vt 0.674400 0.247880
vt 0.744210 0.236080
vt 0.711420 0.220490
vt 0.773510 0.266280
vt 0.706470 0.257490
vt 0.764520 0.305880
vt 0.728260 0.307370
vt 0.756000 0.331620
vt 0.716620 0.335270
vt 0.743980 0.359130
vt 0.701220 0.367370
vt 0.727760 0.390580
vt 0.682450 0.401180
vt 0.708190 0.423730
vt 0.661840 0.435720
vt 0.686420 0.457460
vt 0.638930 0.471430
vt 0.662370 0.492340
vt 0.616700 0.504930
vt 0.638670 0.524840
vt 0.590390 0.138920
vt 0.641610 0.158850
vt 0.649330 0.174700
vt 0.586380 0.152360
vt 0.640920 0.212890
vt 0.574530 0.189460
vt 0.621820 0.270130
vt 0.554360 0.246110
vt 0.592550 0.339940
vt 0.527090 0.316420
vt 0.555930 0.415130
vt 0.495490 0.393300
vt 0.515750 0.490420
vt 0.462540 0.471020
vt 0.475420 0.563410
vt 0.430760 0.546720
vt 0.437710 0.632010
vt 0.367320 0.604530
vt 0.404500 0.694200
vt 0.355270 0.674010
vt 0.444940 0.115390
vt 0.539180 0.118990
vt 0.523420 0.130020
vt 0.402620 0.127350
vt 0.508140 0.166020
vt 0.378600 0.161530
vt 0.486900 0.222080
vt 0.353830 0.215510
vt 0.461640 0.292910
vt 0.331910 0.285340
vt 0.435050 0.371470
vt 0.315420 0.364290
vt 0.409340 0.451610
vt 0.304830 0.445520
vt 0.386100 0.530030
vt 0.299500 0.524740
vt 0.299960 0.599450
vt 0.308250 0.669090
vt 0.269350 0.679020
vt 0.306810 0.738680
vt 0.243840 0.701650
vt 0.243120 0.614930
vt 0.204520 0.647710
vt 0.225620 0.545330
vt 0.174800 0.587800
vt 0.215360 0.470400
vt 0.153880 0.521840
vt 0.213000 0.392530
vt 0.142940 0.451500
vt 0.220680 0.316080
vt 0.144520 0.380090
vt 0.239110 0.247850
vt 0.159670 0.313680
vt 0.265990 0.194380
vt 0.186510 0.258670
vt 0.297000 0.159190
vt 0.221030 0.219170
vt 0.363900 0.139730
vt 0.305730 0.185770
vt 0.380450 0.420020
vt 0.305540 0.328780
vt 0.210930 0.396380
vt 0.298980 0.506220
vt 0.177160 0.447390
vt 0.264950 0.558490
vt 0.153080 0.507150
vt 0.237410 0.615270
vt 0.140140 0.568700
vt 0.219300 0.670930
vt 0.139530 0.625680
vt 0.212450 0.719840
vt 0.151320 0.674690
vt 0.216800 0.758670
vt 0.174350 0.715650
vt 0.230590 0.787070
vt 0.207290 0.748520
vt 0.252160 0.804910
vt 0.249020 0.772810
vt 0.280390 0.811910
vt 0.483050 0.497250
vt 0.423160 0.597800
vt 0.390940 0.650270
vt 0.360360 0.703870
vt 0.335730 0.754320
vt 0.319680 0.796650
vt 0.312300 0.827470
vt 0.311630 0.845940
vt 0.316020 0.851710
vt 0.324570 0.844520
vt 0.585490 0.537110
vt 0.549070 0.642480
vt 0.523720 0.697150
vt 0.495280 0.751920
vt 0.466640 0.801350
vt 0.440560 0.840310
vt 0.418720 0.866270
vt 0.400950 0.879320
vt 0.386410 0.879180
vt 0.373800 0.864710
vt 0.679730 0.540720
vt 0.669870 0.645150
vt 0.653250 0.701640
vt 0.628350 0.758490
vt 0.596370 0.808930
vt 0.560190 0.847490
vt 0.523220 0.872370
vt 0.487550 0.884620
vt 0.453770 0.884260
vt 0.420830 0.869630
vt 0.407100 0.833860
vt 0.362690 0.835260
vt 0.314620 0.807680
vt 0.354400 0.791980
vt 0.291350 0.767560
vt 0.236270 0.734180
vt 0.190970 0.693700
vt 0.155680 0.646540
vt 0.130410 0.592650
vt 0.116350 0.532620
vt 0.115390 0.467990
vt 0.128140 0.403480
vt 0.153190 0.345500
vt 0.187880 0.299690
vt 0.281960 0.249050
vt 0.422570 0.804980
vt 0.529140 0.315500
vt 0.592550 0.354300
vt 0.663530 0.318410
vt 0.629520 0.264750
vt 0.718060 0.300220
vt 0.781670 0.281700
vt 0.817540 0.321200
vt 0.567650 0.522720
vt 0.592920 0.485940
vt 0.567300 0.467880
vt 0.613690 0.451440
vt 0.586600 0.432370
vt 0.635440 0.414910
vt 0.607200 0.395020
vt 0.654910 0.379540
vt 0.625520 0.358830
vt 0.672860 0.345090
vt 0.642650 0.323730
vt 0.687440 0.312330
vt 0.656430 0.290330
vt 0.698710 0.284030
vt 0.667310 0.261620
vt 0.615750 0.203120
vt 0.553510 0.175090
vt 0.496560 0.167510
vt 0.450650 0.178740
vt 0.421210 0.205610
vt 0.414290 0.245490
vt 0.433850 0.295100
vt 0.477510 0.347440
vt 0.536150 0.392190
vt 0.598400 0.420220
vt 0.655350 0.427810
vt 0.701250 0.416580
vt 0.730690 0.389710
vt 0.737620 0.349830
vt 0.830910 0.367180
vt 0.873090 0.424470
vt 0.800520 0.575920
vt 0.747670 0.632630
vt 0.687180 0.684210
vt 0.622040 0.728260
vt 0.480060 0.765900
vt 0.448680 0.726810
vt 0.399300 0.764860
vt 0.351230 0.737280
vt 0.647540 0.354860
vt 0.495130 0.261840
vt 0.511120 0.225390
vt 0.566110 0.225950
vt 0.861560 0.376120
vt 0.819120 0.327320
vt 0.788140 0.525570
vt 0.736080 0.586100
vt 0.500000 0.000000
vt 0.661000 0.038060
vt 0.727690 0.038060
vt 0.661000 0.038060
vt 0.915540 0.176590
vt 0.862070 0.176720
vt 1.000000 0.500010
vt 0.959050 0.500000
vt 0.915540 0.760920
vt 0.877160 0.760780
vt 0.739220 0.913790
vt 0.661640 0.922410
vt 0.500000 1.000000
vt 0.500000 0.937500
vt 0.334050 0.924570
vt 0.500000 0.760920
vt 0.122850 0.760780
vt 0.500000 0.500010
vt 0.043100 0.500000
vt 0.497840 0.131470
vt 0.135780 0.176720
vt 0.500000 0.038060
vt 0.338990 0.038060
vt 0.272300 0.038060
vt 0.338990 0.038060
vt 0.084460 0.176590
vt 0.206170 0.176590
vt 0.000000 0.500010
vt 0.146450 0.500010
vt 0.084460 0.760920
vt 0.206170 0.760920
vt 0.267240 0.913790
vt 0.334050 0.924570
vt 0.500000 0.937500
vt 0.661640 0.922410
vt 0.793830 0.176590
vt 0.853550 0.500010
vt 0.793830 0.760920
vt 0.497840 0.131470
vt 0.500000 0.038060
vt 0.810340 0.088360
vt 0.814660 0.017240
vt 0.504310 0.088360
vt 0.504310 0.017240
vt 0.797410 0.967670
vt 0.799570 0.918100
vt 0.502160 0.967670
vt 0.500000 0.918100
vt 0.665950 0.976290
vt 0.668100 0.935350
vt 0.500000 0.976290
vt 0.497840 0.935350
vt 0.193970 0.088360
vt 0.193970 0.017240
vt 0.209050 0.967670
vt 0.211210 0.918100
vt 0.323280 0.976290
vt 0.321120 0.935350
vt 0.500000 0.000000
vt 0.661000 0.038060
vt 0.727690 0.038060
vt 0.661000 0.038060
vt 0.915540 0.176590
vt 0.879310 0.187500
vt 1.000000 0.500000
vt 0.965520 0.500000
vt 0.915540 0.823410
vt 0.890090 0.741380
vt 0.727700 0.961940
vt 0.661010 0.961940
vt 0.500000 1.000000
vt 0.500000 0.961940
vt 0.339000 0.961940
vt 0.500000 0.700430
vt 0.109910 0.750000
vt 0.500000 0.426720
vt 0.038790 0.500000
vt 0.497840 0.109910
vt 0.109910 0.187500
vt 0.500000 0.038060
vt 0.338990 0.038060
vt 0.272300 0.038060
vt 0.338990 0.038060
vt 0.084460 0.176590
vt 0.109910 0.187500
vt 0.000000 0.500000
vt 0.038790 0.500000
vt 0.084460 0.823410
vt 0.109910 0.750000
vt 0.272310 0.961940
vt 0.339000 0.961940
vt 0.500000 0.961940
vt 0.661010 0.961940
vt 0.500000 0.924570
vt 0.659480 0.924570
vt 0.879310 0.187500
vt 0.965520 0.500000
vt 0.890090 0.741380
vt 0.500000 0.081900
vt 0.500000 0.038060
vt 0.883620 0.239220
vt 0.500000 0.131470
vt 0.859910 0.924570
vt 0.898710 0.853450
vt 0.500000 0.892240
vt 0.096980 0.237070
vt 0.118530 0.924570
vt 0.105600 0.857760
vt 0.338360 0.924570
vn 0.6865 -0.7125 0.1452
vn 0.6873 -0.7114 0.1471
vn 0.9191 -0.3414 0.1966
vn 0.9234 -0.3209 0.2106
vn 0.9743 -0.0361 0.2222
vn 0.9717 -0.0125 0.2358
vn 0.9566 0.1763 0.2321
vn 0.9508 0.1931 0.2422
vn 0.9033 0.3620 0.2301
vn 0.8988 0.3699 0.2353
vn 0.8295 0.5146 0.2172
vn 0.8271 0.5175 0.2194
vn 0.7439 0.6385 0.1973
vn 0.7405 0.6415 0.2002
vn 0.6336 0.7545 0.1713
vn 0.6255 0.7596 0.1783
vn 0.4946 0.8576 0.1410
vn 0.4448 0.8756 0.1882
vn 0.5951 -0.7155 0.3659
vn 0.5990 -0.6754 0.4302
vn 0.7666 -0.3305 0.5505
vn 0.7643 -0.3075 0.5669
vn 0.8030 -0.0222 0.5956
vn 0.7917 0.0091 0.6108
vn 0.7795 0.1757 0.6013
vn 0.7685 0.1946 0.6095
vn 0.7351 0.3460 0.5830
vn 0.7300 0.3524 0.5856
vn 0.6791 0.4920 0.5448
vn 0.6767 0.4943 0.5457
vn 0.6122 0.6177 0.4937
vn 0.6042 0.6234 0.4963
vn 0.5219 0.7375 0.4287
vn 0.4877 0.7539 0.4403
vn 0.3869 0.8535 0.3492
vn 0.3641 0.8593 0.3593
vn 0.1003 0.7225 0.6841
vn 0.1360 0.5920 0.7944
vn 0.1677 0.6237 0.7634
vn 0.1869 0.5728 0.7981
vn 0.1310 0.5184 0.8451
vn 0.1574 0.4257 0.8911
vn 0.1302 0.3903 0.9114
vn 0.1515 0.3340 0.9303
vn 0.1469 0.3273 0.9334
vn 0.1585 0.2898 0.9439
vn 0.1368 0.2599 0.9559
vn 0.1586 0.1920 0.9685
vn 0.1495 0.1778 0.9727
vn 0.1642 0.1191 0.9792
vn 0.1367 0.0777 0.9876
vn 0.1577 -0.0051 0.9875
vn 0.1544 -0.0104 0.9880
vn -0.0657 0.7181 0.6928
vn 0.0625 0.7037 0.7077
vn 0.0734 0.6053 0.7926
vn 0.0523 0.6194 0.7834
vn 0.0473 0.5449 0.8372
vn 0.0812 0.5165 0.8524
vn 0.0665 0.4095 0.9099
vn 0.0876 0.3881 0.9174
vn 0.0803 0.3365 0.9383
vn 0.0910 0.3250 0.9413
vn 0.0833 0.2709 0.9590
vn 0.0947 0.2579 0.9615
vn 0.0854 0.1902 0.9780
vn 0.0973 0.1756 0.9796
vn 0.0857 0.0913 0.9921
vn 0.0974 0.0758 0.9924
vn 0.0852 -0.0143 0.9963
vn 0.0845 -0.0134 0.9963
vn 0.0832 -0.1700 0.9819
vn 0.1639 -0.1801 0.9699
vn 0.1776 -0.1962 0.9644
vn 0.3342 -0.0403 0.9416
vn 0.3940 -0.0508 0.9177
vn 0.4418 0.0042 0.8971
vn 0.0013 -0.8967 0.4427
vn -0.0866 -0.6970 0.7119
vn -0.0399 -0.6565 0.7533
vn -0.0998 -0.3880 0.9162
vn -0.0545 -0.3183 0.9464
vn -0.0633 -0.2039 0.9769
vn -0.0214 -0.1386 0.9901
vn -0.0470 -0.0206 0.9987
vn -0.0331 0.0031 0.9994
vn -0.0481 0.0841 0.9953
vn -0.0304 0.1074 0.9938
vn -0.0426 0.1893 0.9810
vn -0.0296 0.2054 0.9782
vn -0.0396 0.2699 0.9621
vn -0.0273 0.2841 0.9584
vn -0.0346 0.3285 0.9439
vn -0.0171 0.3479 0.9374
vn -0.0351 0.4053 0.9135
vn -0.0316 0.4094 0.9118
vn -0.3025 -0.7175 0.6274
vn -0.3145 -0.7124 0.6273
vn -0.3340 -0.3875 0.8592
vn -0.3995 -0.3158 0.8606
vn -0.3984 -0.0666 0.9148
vn -0.4429 -0.0086 0.8965
vn -0.4263 0.1579 0.8907
vn -0.4353 0.1696 0.8842
vn -0.4095 0.3123 0.8572
vn -0.4186 0.3238 0.8484
vn -0.3765 0.4793 0.7928
vn -0.3639 0.4642 0.8076
vn -0.3279 0.5856 0.7413
vn -0.3393 0.5971 0.7269
vn -0.2656 0.7342 0.6249
vn -0.2797 0.7491 0.6006
vn -0.2391 0.8241 0.5135
vn -0.2505 0.8386 0.4837
vn -0.5519 -0.7163 0.4270
vn -0.6067 -0.6801 0.4116
vn -0.7540 -0.3055 0.5815
vn -0.7828 -0.2512 0.5694
vn -0.7941 0.0059 0.6078
vn -0.7959 0.0121 0.6053
vn -0.7704 0.1886 0.6090
vn -0.7731 0.2035 0.6007
vn -0.7297 0.3481 0.5886
vn -0.7316 0.3720 0.5712
vn -0.6753 0.4932 0.5484
vn -0.6751 0.5168 0.5265
vn -0.6202 0.6029 0.5019
vn -0.6151 0.6445 0.4541
vn -0.4900 0.7646 0.4187
vn -0.4926 0.7536 0.4352
vn -0.3685 0.8494 0.3778
vn -0.3688 0.8579 0.3577
vn -0.2718 0.9584 -0.0867
vn -0.4864 0.8659 -0.1165
vn -0.4982 0.8555 -0.1410
vn -0.6355 0.7586 -0.1441
vn -0.6508 0.7397 -0.1710
vn -0.7459 0.6430 -0.1738
vn -0.7582 0.6219 -0.1959
vn -0.8314 0.5195 -0.1971
vn -0.8415 0.4943 -0.2182
vn -0.9045 0.3673 -0.2165
vn -0.9104 0.3406 -0.2348
vn -0.9567 0.1818 -0.2274
vn -0.9576 0.1585 -0.2405
vn -0.9740 -0.0302 -0.2247
vn -0.9708 -0.0511 -0.2342
vn -0.9234 -0.3297 -0.1966
vn -0.8939 -0.3892 -0.2226
vn -0.7015 -0.7003 -0.1321
vn -0.6301 -0.7524 -0.1922
vn -0.0976 -0.6967 -0.7107
vn -0.0968 -0.6955 -0.7119
vn -0.1270 -0.3329 -0.9344
vn -0.1276 -0.3346 -0.9337
vn -0.1353 -0.0375 -0.9901
vn -0.1378 -0.0435 -0.9895
vn -0.1365 0.1400 -0.9807
vn -0.1370 0.1389 -0.9808
vn -0.1322 0.2952 -0.9463
vn -0.1300 0.2990 -0.9454
vn -0.1224 0.4392 -0.8900
vn -0.1176 0.4461 -0.8872
vn -0.1080 0.5702 -0.8144
vn -0.1018 0.5777 -0.8099
vn -0.0900 0.6921 -0.7161
vn -0.0833 0.6983 -0.7109
vn -0.0693 0.8034 -0.5914
vn -0.0447 0.8195 -0.5714
vn 0.0732 -0.7037 -0.7067
vn 0.0884 -0.6886 -0.7197
vn 0.1144 -0.3450 -0.9316
vn 0.1264 -0.3192 -0.9392
vn 0.1332 -0.0472 -0.9900
vn 0.1399 -0.0310 -0.9897
vn 0.1386 0.1366 -0.9809
vn 0.1428 0.1462 -0.9789
vn 0.1379 0.2969 -0.9449
vn 0.1396 0.3005 -0.9435
vn 0.1312 0.4436 -0.8866
vn 0.1311 0.4435 -0.8866
vn 0.1197 0.5748 -0.8095
vn 0.1190 0.5736 -0.8104
vn 0.1044 0.6956 -0.7108
vn 0.1042 0.6952 -0.7112
vn 0.0831 0.8195 -0.5671
vn 0.0797 0.8163 -0.5721
vn 0.2769 -0.7134 -0.6437
vn 0.3191 -0.6849 -0.6551
vn 0.4143 -0.3240 -0.8505
vn 0.4314 -0.2950 -0.8526
vn 0.4514 -0.0138 -0.8922
vn 0.4533 -0.0093 -0.8913
vn 0.4472 0.1642 -0.8792
vn 0.4472 0.1641 -0.8792
vn 0.4299 0.3172 -0.8453
vn 0.4297 0.3166 -0.8457
vn 0.4022 0.4602 -0.7915
vn 0.4013 0.4576 -0.7934
vn 0.3636 0.5924 -0.7189
vn 0.3615 0.5864 -0.7249
vn 0.3117 0.7157 -0.6250
vn 0.3087 0.7085 -0.6347
vn 0.2431 0.8313 -0.4999
vn 0.2492 0.8406 -0.4809
vn 0.5228 -0.7150 -0.4643
vn 0.5600 -0.6926 -0.4547
vn 0.7396 -0.3041 -0.6005
vn 0.7380 -0.3067 -0.6012
vn 0.7753 0.0049 -0.6316
vn 0.7673 -0.0182 -0.6411
vn 0.7541 0.1851 -0.6301
vn 0.7512 0.1731 -0.6369
vn 0.7165 0.3430 -0.6075
vn 0.7164 0.3428 -0.6076
vn 0.6657 0.4879 -0.5646
vn 0.6659 0.4908 -0.5618
vn 0.6002 0.6192 -0.5064
vn 0.6002 0.6171 -0.5089
vn 0.5110 0.7425 -0.4332
vn 0.5113 0.7354 -0.4447
vn 0.3907 0.8555 -0.3398
vn 0.3902 0.8498 -0.3543
vn 0.0498 0.9979 -0.0406
vn 0.0893 0.9899 -0.1103
vn -0.0351 0.9894 -0.1411
vn -0.1073 0.9924 -0.0606
vn -0.2452 0.9562 -0.1596
vn -0.2201 0.9609 -0.1679
vn -0.3527 0.8604 -0.3679
vn -0.4113 0.8387 -0.3569
vn -0.4881 0.7422 -0.4593
vn -0.5311 0.7155 -0.4540
vn -0.5854 0.6186 -0.5240
vn -0.6119 0.5955 -0.5205
vn -0.6542 0.4895 -0.5765
vn -0.6735 0.4673 -0.5728
vn -0.7045 0.3488 -0.6181
vn -0.7247 0.3178 -0.6113
vn -0.7414 0.1929 -0.6428
vn -0.7635 0.1452 -0.6293
vn -0.7633 0.0091 -0.6459
vn -0.7805 -0.0542 -0.6228
vn -0.7300 -0.3073 -0.6104
vn -0.7318 -0.3834 -0.5635
vn -0.5274 -0.7151 -0.4588
vn -0.5265 -0.7246 -0.4446
vn 0.2347 0.9558 -0.1773
vn 0.2596 0.9521 -0.1618
vn 0.1827 0.9178 -0.3526
vn 0.0646 0.9273 -0.3688
vn 0.0531 0.9229 -0.3814
vn -0.0453 0.9296 -0.3657
vn -0.0459 0.9294 -0.3663
vn -0.1437 0.9247 -0.3526
vn -0.2336 0.8285 -0.5089
vn -0.2242 0.8321 -0.5073
vn -0.2819 0.7168 -0.6378
vn -0.3005 0.7050 -0.6424
vn -0.3410 0.5936 -0.7289
vn -0.3547 0.5815 -0.7321
vn -0.3869 0.4612 -0.7985
vn -0.3944 0.4527 -0.7997
vn -0.4194 0.3182 -0.8502
vn -0.4232 0.3128 -0.8503
vn -0.4394 0.1656 -0.8829
vn -0.4424 0.1605 -0.8824
vn -0.4482 -0.0114 -0.8939
vn -0.4501 -0.0159 -0.8928
vn -0.4270 -0.3169 -0.8469
vn -0.4272 -0.3176 -0.8465
vn -0.3189 -0.7065 -0.6318
vn -0.3147 -0.6968 -0.6446
vn 0.6795 -0.7126 -0.1745
vn 0.6909 -0.7040 -0.1645
vn 0.9201 -0.3247 -0.2191
vn 0.9188 -0.3274 -0.2205
vn 0.9722 -0.0198 -0.2334
vn 0.9705 -0.0300 -0.2390
vn 0.9546 0.1829 -0.2351
vn 0.9546 0.1814 -0.2362
vn 0.9048 0.3622 -0.2238
vn 0.9039 0.3669 -0.2200
vn 0.8334 0.5141 -0.2028
vn 0.8314 0.5194 -0.1976
vn 0.7469 0.6408 -0.1775
vn 0.7458 0.6427 -0.1751
vn 0.6340 0.7589 -0.1489
vn 0.6349 0.7577 -0.1509
vn 0.4968 0.8598 -0.1181
vn 0.4883 0.8673 -0.0966
vn 0.2810 0.9581 -0.0556
vn 0.2580 0.9630 0.0776
vn 0.2197 0.9681 0.1203
vn 0.2169 0.9450 0.2448
vn 0.0065 -1.0000 -0.0035
vn -0.0024 -1.0000 0.0054
vn 0.0452 -0.9857 0.1626
vn 0.0188 -0.9795 0.2004
vn 0.0596 -0.9160 0.3968
vn 0.0099 -0.8966 0.4427
vn 0.1006 -0.7062 0.7008
vn 0.0426 -0.6564 0.7532
vn 0.1024 -0.3920 0.9142
vn 0.0544 -0.3183 0.9464
vn 0.0644 -0.1879 0.9801
vn 0.0315 -0.1386 0.9899
vn 0.0467 -0.0193 0.9987
vn 0.0312 0.0031 0.9995
vn 0.0435 0.0903 0.9950
vn 0.0304 0.1074 0.9937
vn 0.0427 0.1893 0.9810
vn 0.0296 0.2054 0.9782
vn 0.0396 0.2699 0.9621
vn 0.0273 0.2841 0.9584
vn 0.0358 0.3355 0.9414
vn 0.0243 0.3479 0.9372
vn 0.0344 0.4064 0.9130
vn 0.0314 0.4093 0.9118
vn 0.0291 0.5345 0.8446
vn -0.0400 0.5401 0.8406
vn -0.0413 0.5411 0.8400
vn -0.0538 0.5345 0.8435
vn -0.1568 0.5470 0.8223
vn -0.1552 0.3971 0.9046
vn -0.1415 0.4101 0.9010
vn -0.1329 0.3410 0.9306
vn -0.1535 0.3233 0.9338
vn -0.1518 0.2723 0.9502
vn -0.1473 0.2768 0.9496
vn -0.1415 0.1924 0.9711
vn -0.1587 0.1752 0.9717
vn -0.1553 0.1083 0.9819
vn -0.1617 0.1008 0.9817
vn -0.1420 0.0014 0.9899
vn -0.1585 -0.0230 0.9871
vn -0.1394 -0.1557 0.9779
vn -0.1875 -0.2225 0.9567
vn -0.1705 -0.3791 0.9095
vn -0.1812 -0.3940 0.9011
vn -0.0893 -0.6970 0.7115
vn -0.0923 -0.6996 0.7085
vn -0.0380 -0.9206 0.3885
vn -0.1683 -0.9352 0.3116
vn -0.1305 -0.9215 0.3657
vn -0.1942 -0.9194 0.3421
vn -0.2633 -0.9340 0.2415
vn -0.3143 -0.9257 0.2104
vn -0.3280 -0.9310 0.1605
vn -0.3806 -0.9201 0.0930
vn -0.3398 -0.9340 -0.1101
vn -0.3288 -0.9430 -0.0519
vn -0.2611 -0.9452 -0.1961
vn -0.2589 -0.9263 -0.2737
vn -0.1559 -0.9090 -0.3865
vn -0.1691 -0.9227 -0.3464
vn -0.0760 -0.9155 -0.3951
vn -0.0583 -0.9038 -0.4241
vn 0.0479 -0.9078 -0.4166
vn 0.0427 -0.9097 -0.4130
vn 0.1104 -0.9214 -0.3727
vn 0.1638 -0.9100 -0.3809
vn 0.2594 -0.9313 -0.2555
vn 0.2778 -0.9284 -0.2467
vn 0.3117 -0.9382 -0.1502
vn 0.3648 -0.9264 -0.0936
vn 0.3578 -0.9263 0.1184
vn 0.3430 -0.9365 0.0726
vn 0.2920 -0.9325 0.2125
vn 0.2926 -0.9303 0.2212
vn 0.2271 -0.9178 0.3256
vn 0.3566 -0.6780 0.6428
vn 0.3877 -0.7128 0.5845
vn 0.5240 -0.3187 0.7898
vn 0.5111 -0.2961 0.8069
vn 0.5488 -0.0097 0.8359
vn 0.5479 -0.0083 0.8365
vn 0.5540 0.1741 0.8141
vn 0.5290 0.2000 0.8247
vn 0.5101 0.3279 0.7952
vn 0.5058 0.3315 0.7964
vn 0.4733 0.4696 0.7453
vn 0.4676 0.4734 0.7465
vn 0.4251 0.5989 0.6787
vn 0.4083 0.6074 0.6815
vn 0.3549 0.7233 0.5923
vn 0.2877 0.7437 0.6035
vn 0.2427 0.8154 0.5255
vn 0.2026 0.8284 0.5223
vn 0.1363 0.9263 0.3514
vn 0.0460 0.9345 0.3529
vn 0.0570 0.9298 0.3635
vn -0.0530 0.9229 0.3813
vn -0.0645 0.9273 0.3687
vn -0.1825 0.9179 0.3524
vn -0.2665 0.9533 0.1424
vn -0.1828 0.9651 0.1877
vn -0.2678 0.9626 0.0402
vn -0.4580 0.8766 0.1477
vn -0.4952 0.8611 0.1149
vn -0.6018 0.7793 0.1750
vn -0.6358 0.7574 0.1487
vn -0.7244 0.6613 0.1948
vn -0.7465 0.6410 0.1784
vn -0.8152 0.5379 0.2145
vn -0.8323 0.5166 0.2010
vn -0.8899 0.3918 0.2338
vn -0.9058 0.3633 0.2183
vn -0.9446 0.2173 0.2460
vn -0.9580 0.1768 0.2258
vn -0.9693 0.0174 0.2454
vn -0.9749 -0.0360 0.2199
vn -0.9395 -0.2522 0.2318
vn -0.9217 -0.3418 0.1833
vn -0.7115 -0.6787 0.1820
vn -0.6817 -0.7212 0.1229
vn 0.1110 -0.9897 -0.0901
vn 0.1062 -0.9858 -0.1300
vn 0.0149 -0.9868 -0.1615
vn 0.0063 -0.9854 -0.1704
vn -0.0154 -0.9854 -0.1696
vn -0.0178 -0.9859 -0.1662
vn -0.1013 0.9891 0.1070
vn -0.0487 0.9986 0.0223
vn -0.1158 -0.9888 -0.0942
vn -0.1160 -0.9871 -0.1104
vn -0.0975 -0.9897 0.1047
vn -0.0953 -0.9886 0.1164
vn -0.0451 -0.9857 0.1621
vn -0.0183 -0.9796 0.2004
vn -0.0810 -0.0226 0.9965
vn -0.0990 0.0050 0.9951
vn -0.0897 0.6256 0.7750
vn -0.0396 0.5907 0.8059
vn -0.0788 0.8206 0.5661
vn -0.0688 0.8129 0.5784
vn 0.1250 -0.7059 0.6971
vn 0.0838 -0.6755 0.7326
vn 0.1669 -0.3839 0.9081
vn 0.1633 -0.3797 0.9106
vn 0.0448 0.8210 0.5691
vn 0.0863 0.7988 0.5953
vn 0.1036 -0.9882 0.1129
vn 0.1030 -0.9870 0.1233
vn -0.0067 -1.0000 -0.0035
vn 0.0023 -1.0000 0.0054
vn 0.1569 -0.9872 0.0297
vn 0.1490 -0.9876 -0.0494
vn -0.1570 -0.9872 -0.0296
vn -0.1492 -0.9876 0.0495
vn 0.1059 0.9923 0.0649
vn 0.0456 0.9886 0.1434
vn -0.4330 0.6022 0.6707
vn -0.4296 0.5975 0.6770
vn -0.4789 0.4741 0.7388
vn -0.4780 0.4726 0.7404
vn -0.5145 0.3309 0.7911
vn -0.5136 0.3293 0.7923
vn -0.5398 0.1773 0.8229
vn -0.5370 0.1730 0.8256
vn -0.5520 -0.0009 0.8339
vn -0.5485 -0.0060 0.8361
vn -0.5153 -0.3145 0.7972
vn -0.5260 -0.3030 0.7947
vn -0.3444 -0.7163 0.6069
vn -0.3877 -0.6999 0.5998
vn -0.1895 0.6167 0.7640
vn -0.1506 0.5882 0.7946
vn 0.3247 -0.7114 0.6233
vn 0.2887 -0.6822 0.6717
vn 0.3752 -0.3120 0.8729
vn 0.3969 -0.3354 0.8544
vn 0.4199 0.1764 0.8903
vn 0.4228 0.1740 0.8894
vn 0.4171 0.3236 0.8493
vn 0.4050 0.3333 0.8514
vn 0.3911 0.4665 0.7934
vn 0.3458 0.4960 0.7965
vn 0.3337 0.5954 0.7309
vn 0.3221 0.6016 0.7310
vn -0.0886 0.2710 0.9585
vn -0.0902 0.2695 0.9588
vn -0.0934 0.0888 0.9917
vn -0.0859 0.0958 0.9917
vn -0.0867 0.3362 0.9378
vn -0.0884 0.3349 0.9381
vn -0.0921 0.1902 0.9774
vn -0.0920 0.1903 0.9774
vn -0.0739 0.4027 0.9123
vn -0.0705 0.3991 0.9142
vn -0.0151 -0.9999 -0.0028
vn -0.0826 -0.9826 -0.1666
vn 0.0831 -0.9133 0.3987
vn 0.0761 -0.9840 0.1609
vn 0.0150 -0.9999 -0.0028
vn -0.0565 -0.9853 0.1615
vn 0.0648 -0.9827 -0.1732
vn 0.2753 0.7354 0.6192
vn 0.0991 0.7230 0.6837
vn -0.1482 0.7076 0.6909
vn -0.0809 0.7293 0.6794
vn -0.3849 0.7232 0.5734
vn 0.1356 -0.9214 0.3642
vn 0.1392 -0.9232 0.3583
vn -0.0571 -0.9190 0.3902
vn 0.2929 0.3542 0.8881
vn 0.2954 0.2141 0.9311
vn -0.2927 0.0945 0.9515
vn -0.2926 0.2698 0.9174
vn 0.2827 0.4188 0.8630
vn -0.2920 0.0051 0.9564
vn -0.1078 -0.1524 0.9824
vn -0.2952 0.1983 0.9346
vn -0.3361 0.1520 0.9295
vn -0.2889 0.3433 0.8937
vn -0.3243 0.3086 0.8942
vn -0.3393 -0.0660 0.9384
vn -0.2834 0.4144 0.8648
vn -0.1926 0.5747 0.7954
vn -0.3337 0.4762 0.8136
vn 0.3377 0.4954 0.8003
vn 0.2878 0.2830 0.9149
vn 0.3223 0.3294 0.8875
vn 0.3091 0.1113 0.9445
vn 0.3463 0.1642 0.9236
vn 0.3052 0.0074 0.9523
vn 0.3208 -0.9399 0.1172
vn 0.3827 -0.6277 0.6779
vn 0.7973 -0.0678 0.5997
vn 0.7608 0.0151 0.6488
vn 0.8060 0.2373 0.5423
vn 0.7850 0.2631 0.5609
vn 0.7857 0.4002 0.4717
vn 0.7243 0.4568 0.5165
vn 0.6900 0.6226 0.3692
vn 0.5725 0.6964 0.4328
vn 0.3210 0.9398 -0.1173
vn 0.1949 0.9801 0.0386
vn -0.2642 0.9637 0.0379
vn -0.1905 0.7604 0.6208
vn -0.2656 0.7106 0.6516
vn -0.1871 0.6169 0.7645
vn -0.2515 0.5742 0.7791
vn -0.1742 0.4918 0.8531
vn -0.2203 0.4565 0.8620
vn -0.1254 0.3343 0.9341
vn -0.1646 0.2871 0.9436
vn 0.0063 -0.1900 0.9818
vn -0.3724 -0.7196 0.5861
vn -0.3829 -0.8720 0.3049
vn -0.7974 -0.5768 -0.1773
vn -0.7608 -0.5888 -0.2729
vn -0.8060 -0.4024 -0.4341
vn -0.7850 -0.4091 -0.4652
vn -0.7857 -0.2726 -0.5553
vn -0.7242 -0.2911 -0.6251
vn -0.6899 -0.0899 -0.7183
vn -0.5724 -0.1187 -0.8113
vn -0.3209 0.4827 -0.8149
vn -0.0775 0.2322 -0.9696
vn 0.1706 0.2825 -0.9440
vn 0.6899 -0.6227 -0.3692
vn 0.5723 -0.6965 -0.4328
vn 0.7856 -0.4003 -0.4717
vn 0.7242 -0.4569 -0.5165
vn 0.8059 -0.2374 -0.5424
vn 0.7849 -0.2632 -0.5609
vn 0.7973 0.0676 -0.5998
vn 0.7607 -0.0152 -0.6489
vn 0.1673 -0.7217 -0.6717
vn 0.1085 -0.7466 -0.6564
vn 0.2141 -0.5863 -0.7813
vn 0.1716 -0.6053 -0.7773
vn 0.2321 -0.4660 -0.8538
vn 0.2140 -0.4759 -0.8531
vn 0.2504 -0.2894 -0.9239
vn 0.2257 -0.3111 -0.9232
vn -0.2257 -0.7222 -0.6538
vn -0.2504 -0.7315 -0.6342
vn -0.2140 -0.5922 -0.7769
vn -0.2322 -0.5968 -0.7681
vn -0.1717 -0.4710 -0.8653
vn -0.2141 -0.4822 -0.8495
vn -0.1086 -0.3037 -0.9465
vn -0.1674 -0.3277 -0.9298
vn -0.7567 0.0081 0.6537
vn -0.6136 0.0422 0.7885
vn -0.8117 0.2505 0.5276
vn -0.7216 0.2720 0.6366
vn -0.8078 0.4012 0.4318
vn -0.7622 0.4105 0.5006
vn 0.1828 0.3313 0.9257
vn 0.2096 0.3046 0.9291
vn 0.1943 0.4899 0.8498
vn 0.2321 0.4660 0.8538
vn 0.1733 0.6185 0.7664
vn 0.2367 0.5850 0.7757
vn 0.1413 0.7668 0.6261
vn 0.2186 0.7272 0.6507
vn -0.7058 0.6115 0.3576
vn -0.7415 0.6116 0.2759
vn 0.3828 0.6276 -0.6780
vn 0.0774 -0.9817 -0.1741
vn -0.1707 -0.9783 -0.1178
vn -0.3704 0.9207 -0.1228
vn 0.1131 -0.1888 0.9755
vn 0.3209 -0.9398 0.1174
vn 0.3828 -0.6277 0.6779
vn 0.7850 0.2631 0.5608
vn 0.7242 0.4568 0.5165
vn 0.6899 0.6226 0.3692
vn 0.3210 0.9398 -0.1172
vn 0.1950 0.9800 0.0386
vn -0.2643 0.9637 0.0380
vn -0.1905 0.7604 0.6209
vn -0.1872 0.6169 0.7644
vn -0.2516 0.5742 0.7791
vn -0.2202 0.4565 0.8620
vn -0.3829 -0.8720 0.3048
vn -0.3210 0.4827 -0.8148
vn -0.1949 0.3559 -0.9140
vn 0.2644 0.3499 -0.8987
vn 0.1866 -0.2852 -0.9401
vn 0.2558 -0.3141 -0.9143
vn 0.6898 -0.6227 -0.3692
vn 0.5725 -0.6964 -0.4327
vn 0.7857 -0.4003 -0.4717
vn 0.8601 -0.1875 -0.4744
vn 0.7865 -0.2858 -0.5475
vn 0.7416 -0.0088 -0.6708
vn 0.7564 0.0266 -0.6535
vn 0.1674 -0.7217 -0.6717
vn 0.1086 -0.7466 -0.6564
vn 0.2140 -0.5863 -0.7813
vn 0.1717 -0.6053 -0.7773
vn 0.2192 -0.4707 -0.8546
vn 0.2139 -0.4734 -0.8545
vn -0.2258 -0.7222 -0.6538
vn -0.2506 -0.7315 -0.6341
vn -0.2140 -0.5921 -0.7769
vn -0.1538 -0.4660 -0.8713
vn -0.1347 -0.3130 -0.9402
vn -0.1661 -0.3282 -0.9299
vn -0.7567 0.0080 0.6537
vn -0.6137 0.0421 0.7884
vn -0.8079 0.4012 0.4317
vn 0.1828 0.3313 0.9256
vn 0.1943 0.4899 0.8499
vn 0.1414 0.7668 0.6261
vn -0.7059 0.6115 0.3575
vn -0.7416 0.6115 0.2757
vn 0.3705 0.4801 -0.7951
vn -0.1708 -0.9782 -0.1177
vn -0.3705 0.9206 -0.1230
usemtl None
s off
f 1/1/1 2/2/1 3/3/1
f 4/4/2 1/1/2 3/3/2
f 4/4/3 3/3/3 5/5/3
f 6/6/4 4/4/4 5/5/4
f 6/6/5 5/5/5 7/7/5
f 8/8/6 6/6/6 7/7/6
f 8/8/7 7/7/7 9/9/7
f 10/10/8 8/8/8 9/9/8
f 10/10/9 9/9/9 11/11/9
f 12/12/10 10/10/10 11/11/10
f 12/12/11 11/11/11 13/13/11
f 14/14/12 12/12/12 13/13/12
f 14/14/13 13/13/13 15/15/13
f 16/16/14 14/14/14 15/15/14
f 16/16/15 15/15/15 17/17/15
f 18/18/16 16/16/16 17/17/16
f 18/18/17 17/17/17 19/19/17
f 20/20/18 18/18/18 19/19/18
f 21/21/19 1/1/19 4/4/19
f 22/22/20 21/21/20 4/4/20
f 22/22/21 4/4/21 6/6/21
f 23/23/22 22/22/22 6/6/22
f 23/23/23 6/6/23 8/8/23
f 24/24/24 23/23/24 8/8/24
f 24/24/25 8/8/25 10/10/25
f 25/25/26 24/24/26 10/10/26
f 25/25/27 10/10/27 12/12/27
f 26/26/28 25/25/28 12/12/28
f 26/26/29 12/12/29 14/14/29
f 27/27/30 26/26/30 14/14/30
f 27/27/31 14/14/31 16/16/31
f 28/28/32 27/27/32 16/16/32
f 28/28/33 16/16/33 18/18/33
f 29/29/34 28/28/34 18/18/34
f 29/29/35 18/18/35 20/20/35
f 30/30/36 29/29/36 20/20/36
f 31/31/37 32/32/37 33/33/37
f 34/34/38 31/31/38 33/33/38
f 34/34/39 33/33/39 35/35/39
f 36/36/40 34/34/40 35/35/40
f 36/36/41 35/35/41 37/37/41
f 38/38/42 36/36/42 37/37/42
f 38/38/43 37/37/43 39/39/43
f 40/40/44 38/38/44 39/39/44
f 40/40/45 39/39/45 41/41/45
f 42/42/46 40/40/46 41/41/46
f 42/42/47 41/41/47 43/43/47
f 44/44/48 42/42/48 43/43/48
f 44/44/49 43/43/49 45/45/49
f 46/46/50 44/44/50 45/45/50
f 46/46/51 45/45/51 47/47/51
f 48/48/52 46/46/52 47/47/52
f 48/48/53 47/47/53 49/49/53
f 50/50/54 51/51/54 52/52/54
f 33/33/55 50/50/55 52/52/55
f 33/33/56 52/52/56 53/53/56
f 35/35/57 33/33/57 53/53/57
f 35/35/58 53/53/58 54/54/58
f 37/37/59 35/35/59 54/54/59
f 37/37/60 54/54/60 55/55/60
f 39/39/61 37/37/61 55/55/61
f 39/39/62 55/55/62 56/56/62
f 41/41/63 39/39/63 56/56/63
f 41/41/64 56/56/64 57/57/64
f 43/43/65 41/41/65 57/57/65
f 43/43/66 57/57/66 58/58/66
f 45/45/67 43/43/67 58/58/67
f 45/45/68 58/58/68 59/59/68
f 47/47/69 45/45/69 59/59/69
f 47/47/70 59/59/70 60/60/70
f 49/49/71 47/47/71 60/60/71
f 49/49/72 60/60/72 61/61/72
f 48/48/73 49/49/73 61/61/73
f 48/48/74 61/61/74 62/62/74
f 63/63/75 48/48/75 62/62/75
f 63/63/76 62/62/76 64/64/76
f 65/65/77 63/63/77 64/64/77
f 66/66/78 67/67/78 68/68/78
f 69/69/79 66/66/79 68/68/79
f 69/69/80 68/68/80 70/70/80
f 71/71/81 69/69/81 70/70/81
f 71/71/82 70/70/82 72/72/82
f 73/73/83 71/71/83 72/72/83
f 73/73/84 72/72/84 74/74/84
f 75/75/85 73/73/85 74/74/85
f 75/75/86 74/74/86 76/76/86
f 77/77/87 75/75/87 76/76/87
f 77/77/88 76/76/88 78/78/88
f 79/79/89 77/77/89 78/78/89
f 79/79/90 78/78/90 80/80/90
f 81/81/91 79/79/91 80/80/91
f 81/81/92 80/80/92 82/82/92
f 83/83/93 81/81/93 82/82/93
f 83/83/94 82/82/94 84/84/94
f 85/85/95 83/83/95 84/84/95
f 85/85/96 84/84/96 86/86/96
f 87/87/97 88/88/97 89/89/97
f 90/90/98 87/87/98 89/89/98
f 90/90/99 89/89/99 91/91/99
f 92/92/100 90/90/100 91/91/100
f 92/92/101 91/91/101 93/93/101
f 94/94/102 92/92/102 93/93/102
f 94/94/103 93/93/103 95/95/103
f 96/96/104 94/94/104 95/95/104
f 96/96/105 95/95/105 97/97/105
f 98/98/106 96/96/106 97/97/106
f 98/98/107 97/97/107 99/99/107
f 100/100/108 98/98/108 99/99/108
f 100/100/109 99/99/109 101/101/109
f 102/102/110 100/100/110 101/101/110
f 102/102/111 101/101/111 103/103/111
f 104/104/112 102/102/112 103/103/112
f 104/104/113 103/103/113 105/105/113
f 106/106/114 104/104/114 105/105/114
f 107/107/115 108/108/115 109/109/115
f 110/110/116 107/107/116 109/109/116
f 110/110/117 109/109/117 111/111/117
f 112/112/118 110/110/118 111/111/118
f 112/112/119 111/111/119 113/113/119
f 114/114/120 112/112/120 113/113/120
f 114/114/121 113/113/121 115/115/121
f 116/116/122 114/114/122 115/115/122
f 116/116/123 115/115/123 117/117/123
f 118/118/124 116/116/124 117/117/124
f 118/118/125 117/117/125 119/119/125
f 120/120/126 118/118/126 119/119/126
f 120/120/127 119/119/127 121/121/127
f 122/122/128 120/120/128 121/121/128
f 122/122/129 121/121/129 104/104/129
f 123/123/130 122/122/130 104/104/130
f 123/123/131 104/104/131 106/106/131
f 124/124/132 123/123/132 106/106/132
f 125/125/133 126/126/133 127/127/133
f 128/128/134 125/125/134 127/127/134
f 128/128/135 127/127/135 129/129/135
f 130/130/136 128/128/136 129/129/136
f 130/130/137 129/129/137 131/131/137
f 132/132/138 130/130/138 131/131/138
f 132/132/139 131/131/139 133/133/139
f 134/134/140 132/132/140 133/133/140
f 134/134/141 133/133/141 135/135/141
f 136/136/142 134/134/142 135/135/142
f 136/136/143 135/135/143 137/137/143
f 138/138/144 136/136/144 137/137/144
f 138/138/145 137/137/145 139/139/145
f 140/140/146 138/138/146 139/139/146
f 140/140/147 139/139/147 141/141/147
f 142/142/148 140/140/148 141/141/148
f 142/142/149 141/141/149 143/143/149
f 144/144/150 142/142/150 143/143/150
f 144/144/151 143/143/151 145/145/151
f 146/146/152 147/147/152 148/148/152
f 149/149/153 146/146/153 148/148/153
f 149/149/154 148/148/154 150/150/154
f 151/151/155 149/149/155 150/150/155
f 151/151/156 150/150/156 152/152/156
f 153/153/157 151/151/157 152/152/157
f 153/153/158 152/152/158 154/154/158
f 155/155/159 153/153/159 154/154/159
f 155/155/160 154/154/160 156/156/160
f 157/157/161 155/155/161 156/156/161
f 157/157/162 156/156/162 158/158/162
f 159/159/163 157/157/163 158/158/163
f 159/159/164 158/158/164 160/160/164
f 161/161/165 159/159/165 160/160/165
f 161/161/166 160/160/166 162/162/166
f 163/163/167 161/161/167 162/162/167
f 163/163/168 162/162/168 164/164/168
f 165/165/169 163/163/169 164/164/169
f 166/166/170 146/146/170 149/149/170
f 167/167/171 166/166/171 149/149/171
f 167/167/172 149/149/172 151/151/172
f 168/168/173 167/167/173 151/151/173
f 168/168/174 151/151/174 153/153/174
f 169/169/175 168/168/175 153/153/175
f 169/169/176 153/153/176 155/155/176
f 170/170/177 169/169/177 155/155/177
f 170/170/178 155/155/178 157/157/178
f 171/171/179 170/170/179 157/157/179
f 171/171/180 157/157/180 159/159/180
f 172/172/181 171/171/181 159/159/181
f 172/172/182 159/159/182 161/161/182
f 173/173/183 172/172/183 161/161/183
f 173/173/184 161/161/184 163/163/184
f 174/174/185 173/173/185 163/163/185
f 174/174/186 163/163/186 165/165/186
f 175/175/187 174/174/187 165/165/187
f 176/176/188 166/166/188 167/167/188
f 177/177/189 176/176/189 167/167/189
f 177/177/190 167/167/190 168/168/190
f 178/178/191 177/177/191 168/168/191
f 178/178/192 168/168/192 169/169/192
f 179/179/193 178/178/193 169/169/193
f 179/179/194 169/169/194 170/170/194
f 180/180/195 179/179/195 170/170/195
f 180/180/196 170/170/196 171/171/196
f 181/181/197 180/180/197 171/171/197
f 181/181/198 171/171/198 172/172/198
f 182/182/199 181/181/199 172/172/199
f 182/182/200 172/172/200 173/173/200
f 183/183/201 182/182/201 173/173/201
f 183/183/202 173/173/202 174/174/202
f 184/184/203 183/183/203 174/174/203
f 184/184/204 174/174/204 175/175/204
f 185/185/205 184/184/205 175/175/205
f 186/186/206 176/176/206 177/177/206
f 187/187/207 186/186/207 177/177/207
f 187/187/208 177/177/208 178/178/208
f 188/188/209 187/187/209 178/178/209
f 188/188/210 178/178/210 179/179/210
f 189/189/211 188/188/211 179/179/211
f 189/189/212 179/179/212 180/180/212
f 190/190/213 189/189/213 180/180/213
f 190/190/214 180/180/214 181/181/214
f 191/191/215 190/190/215 181/181/215
f 191/191/216 181/181/216 182/182/216
f 192/192/217 191/191/217 182/182/217
f 192/192/218 182/182/218 183/183/218
f 193/193/219 192/192/219 183/183/219
f 193/193/220 183/183/220 184/184/220
f 194/194/221 193/193/221 184/184/221
f 194/194/222 184/184/222 185/185/222
f 195/195/223 194/194/223 185/185/223
f 196/196/224 197/197/224 198/198/224
f 199/199/225 196/196/225 198/198/225
f 199/199/226 198/198/226 200/200/226
f 126/126/227 199/199/227 200/200/227
f 126/126/228 200/200/228 201/201/228
f 127/127/229 126/126/229 201/201/229
f 127/127/230 201/201/230 202/202/230
f 129/129/231 127/127/231 202/202/231
f 129/129/232 202/202/232 203/203/232
f 131/131/233 129/129/233 203/203/233
f 131/131/234 203/203/234 204/204/234
f 133/133/235 131/131/235 204/204/235
f 133/133/236 204/204/236 205/205/236
f 135/135/237 133/133/237 205/205/237
f 135/135/238 205/205/238 206/206/238
f 137/137/239 135/135/239 206/206/239
f 137/137/240 206/206/240 207/207/240
f 139/139/241 137/137/241 207/207/241
f 139/139/242 207/207/242 208/208/242
f 141/141/243 139/139/243 208/208/243
f 141/141/244 208/208/244 209/209/244
f 143/143/245 141/141/245 209/209/245
f 143/143/246 209/209/246 210/210/246
f 145/145/247 143/143/247 210/210/247
f 196/196/248 195/195/248 185/185/248
f 197/197/249 196/196/249 185/185/249
f 197/197/250 185/185/250 175/175/250
f 198/198/251 197/197/251 175/175/251
f 198/198/252 175/175/252 165/165/252
f 200/200/253 198/198/253 165/165/253
f 200/200/254 165/165/254 164/164/254
f 201/201/255 200/200/255 164/164/255
f 201/201/256 164/164/256 162/162/256
f 202/202/257 201/201/257 162/162/257
f 202/202/258 162/162/258 160/160/258
f 203/203/259 202/202/259 160/160/259
f 203/203/260 160/160/260 158/158/260
f 204/204/261 203/203/261 158/158/261
f 204/204/262 158/158/262 156/156/262
f 205/205/263 204/204/263 156/156/263
f 205/205/264 156/156/264 154/154/264
f 206/206/265 205/205/265 154/154/265
f 206/206/266 154/154/266 152/152/266
f 207/207/267 206/206/267 152/152/267
f 207/207/268 152/152/268 150/150/268
f 208/208/269 207/207/269 150/150/269
f 208/208/270 150/150/270 148/148/270
f 209/209/271 208/208/271 148/148/271
f 209/209/272 148/148/272 147/147/272
f 210/210/273 209/209/273 147/147/273
f 2/2/274 186/186/274 187/187/274
f 3/3/275 2/2/275 187/187/275
f 3/3/276 187/187/276 188/188/276
f 5/5/277 3/3/277 188/188/277
f 5/5/278 188/188/278 189/189/278
f 7/7/279 5/5/279 189/189/279
f 7/7/280 189/189/280 190/190/280
f 9/9/281 7/7/281 190/190/281
f 9/9/282 190/190/282 191/191/282
f 11/11/283 9/9/283 191/191/283
f 11/11/284 191/191/284 192/192/284
f 13/13/285 11/11/285 192/192/285
f 13/13/286 192/192/286 193/193/286
f 15/15/287 13/13/287 193/193/287
f 15/15/288 193/193/288 194/194/288
f 17/17/289 15/15/289 194/194/289
f 17/17/290 194/194/290 195/195/290
f 19/19/291 17/17/291 195/195/291
f 19/19/292 195/195/292 196/196/292
f 20/20/293 19/19/293 196/196/293
f 20/20/294 196/196/294 211/211/294
f 30/30/295 20/20/295 211/211/295
f 212/212/296 213/213/296 214/214/296
f 215/215/297 212/212/297 214/214/297
f 215/215/298 214/214/298 216/216/298
f 67/67/299 215/215/299 216/216/299
f 67/67/300 216/216/300 217/217/300
f 68/68/301 67/67/301 217/217/301
f 68/68/302 217/217/302 218/218/302
f 70/70/303 68/68/303 218/218/303
f 70/70/304 218/218/304 61/61/304
f 72/72/305 70/70/305 61/61/305
f 72/72/306 61/61/306 60/60/306
f 74/74/307 72/72/307 60/60/307
f 74/74/308 60/60/308 59/59/308
f 76/76/309 74/74/309 59/59/309
f 76/76/310 59/59/310 58/58/310
f 78/78/311 76/76/311 58/58/311
f 78/78/312 58/58/312 57/57/312
f 80/80/313 78/78/313 57/57/313
f 80/80/314 57/57/314 56/56/314
f 82/82/315 80/80/315 56/56/315
f 82/82/316 56/56/316 55/55/316
f 84/84/317 82/82/317 55/55/317
f 84/84/318 55/55/318 54/54/318
f 86/86/319 84/84/319 54/54/319
f 86/86/320 54/54/320 53/53/320
f 85/85/321 86/86/321 53/53/321
f 85/85/322 53/53/322 219/219/322
f 220/220/323 85/85/323 219/219/323
f 220/220/324 219/219/324 221/221/324
f 222/222/325 220/220/325 221/221/325
f 222/222/326 221/221/326 223/223/326
f 224/224/327 222/222/327 223/223/327
f 224/224/328 223/223/328 225/225/328
f 226/226/329 224/224/329 225/225/329
f 226/226/330 225/225/330 227/227/330
f 228/228/331 226/226/331 227/227/331
f 228/228/332 227/227/332 229/229/332
f 230/230/333 228/228/333 229/229/333
f 230/230/334 229/229/334 231/231/334
f 232/232/335 230/230/335 231/231/335
f 232/232/336 231/231/336 233/233/336
f 71/71/337 232/232/337 233/233/337
f 71/71/338 233/233/338 91/91/338
f 69/69/339 71/71/339 91/91/339
f 69/69/340 91/91/340 89/89/340
f 66/66/341 69/69/341 89/89/341
f 66/66/342 89/89/342 88/88/342
f 234/234/343 66/66/343 88/88/343
f 234/234/344 88/88/344 87/87/344
f 235/235/345 234/234/345 87/87/345
f 235/235/346 87/87/346 108/108/346
f 236/236/347 235/235/347 108/108/347
f 236/236/348 108/108/348 107/107/348
f 237/237/349 236/236/349 107/107/349
f 237/237/350 107/107/350 144/144/350
f 238/238/351 237/237/351 144/144/351
f 238/238/352 144/144/352 145/145/352
f 239/239/353 238/238/353 145/145/353
f 239/239/354 145/145/354 210/210/354
f 240/240/355 239/239/355 210/210/355
f 240/240/356 210/210/356 147/147/356
f 241/241/357 240/240/357 147/147/357
f 241/241/358 147/147/358 146/146/358
f 242/242/359 241/241/359 146/146/359
f 242/242/360 146/146/360 166/166/360
f 243/243/361 242/242/361 166/166/361
f 243/243/362 166/166/362 176/176/362
f 244/244/363 243/243/363 176/176/363
f 244/244/364 176/176/364 186/186/364
f 245/245/365 244/244/365 186/186/365
f 245/245/366 186/186/366 2/2/366
f 246/246/367 245/245/367 2/2/367
f 246/246/368 2/2/368 1/1/368
f 247/247/369 246/246/369 1/1/369
f 247/247/370 1/1/370 21/21/370
f 248/248/371 247/247/371 21/21/371
f 248/248/372 21/21/372 22/22/372
f 249/249/373 248/248/373 22/22/373
f 249/249/374 22/22/374 23/23/374
f 64/64/375 249/249/375 23/23/375
f 64/64/376 23/23/376 24/24/376
f 65/65/377 64/64/377 24/24/377
f 65/65/378 24/24/378 25/25/378
f 250/250/379 65/65/379 25/25/379
f 250/250/380 25/25/380 26/26/380
f 251/251/381 250/250/381 26/26/381
f 251/251/382 26/26/382 27/27/382
f 252/252/383 251/251/383 27/27/383
f 252/252/384 27/27/384 28/28/384
f 253/253/385 252/252/385 28/28/385
f 253/253/386 28/28/386 29/29/386
f 32/32/387 253/253/387 29/29/387
f 32/32/388 29/29/388 30/30/388
f 254/254/389 32/32/389 30/30/389
f 254/254/390 30/30/390 211/211/390
f 255/255/391 254/254/391 211/211/391
f 255/255/392 211/211/392 256/256/392
f 105/105/393 255/255/393 256/256/393
f 105/105/394 256/256/394 257/257/394
f 106/106/395 105/105/395 257/257/395
f 106/106/396 257/257/396 126/126/396
f 124/124/397 106/106/397 126/126/397
f 124/124/398 126/126/398 125/125/398
f 123/123/399 124/124/399 125/125/399
f 123/123/400 125/125/400 128/128/400
f 122/122/401 123/123/401 128/128/401
f 122/122/402 128/128/402 130/130/402
f 120/120/403 122/122/403 130/130/403
f 120/120/404 130/130/404 132/132/404
f 118/118/405 120/120/405 132/132/405
f 118/118/406 132/132/406 134/134/406
f 116/116/407 118/118/407 134/134/407
f 116/116/408 134/134/408 136/136/408
f 114/114/409 116/116/409 136/136/409
f 114/114/410 136/136/410 138/138/410
f 112/112/411 114/114/411 138/138/411
f 112/112/412 138/138/412 140/140/412
f 110/110/413 112/112/413 140/140/413
f 110/110/414 140/140/414 142/142/414
f 107/107/415 110/110/415 142/142/415
f 107/107/416 142/142/416 144/144/416
f 258/258/417 213/213/417 244/244/417
f 244/244/418 213/213/418 243/243/418
f 213/213/419 212/212/419 242/242/419
f 242/242/420 212/212/420 241/241/420
f 259/259/421 240/240/421 212/212/421
f 212/212/422 240/240/422 241/241/422
f 199/199/423 126/126/423 256/256/423
f 256/256/424 126/126/424 257/257/424
f 260/260/425 238/238/425 259/259/425
f 259/259/426 238/238/426 239/239/426
f 260/260/427 261/261/427 236/236/427
f 236/236/428 261/261/428 235/235/428
f 261/261/429 215/215/429 234/234/429
f 234/234/430 215/215/430 67/67/430
f 73/73/431 75/75/431 232/232/431
f 232/232/432 75/75/432 230/230/432
f 51/51/433 219/219/433 52/52/433
f 52/52/434 219/219/434 53/53/434
f 105/105/435 103/103/435 255/255/435
f 255/255/436 103/103/436 50/50/436
f 218/218/437 217/217/437 262/262/437
f 262/262/438 217/217/438 263/263/438
f 61/61/439 218/218/439 62/62/439
f 62/62/440 218/218/440 262/262/440
f 255/255/441 50/50/441 254/254/441
f 254/254/442 50/50/442 32/32/442
f 258/258/443 246/246/443 214/214/443
f 214/214/444 246/246/444 247/247/444
f 259/259/445 212/212/445 261/261/445
f 261/261/446 212/212/446 215/215/446
f 246/246/447 258/258/447 245/245/447
f 245/245/448 258/258/448 244/244/448
f 238/238/449 260/260/449 237/237/449
f 237/237/450 260/260/450 236/236/450
f 196/196/451 199/199/451 211/211/451
f 211/211/452 199/199/452 256/256/452
f 100/100/453 102/102/453 119/119/453
f 119/119/454 102/102/454 121/121/454
f 98/98/455 100/100/455 117/117/455
f 117/117/456 100/100/456 119/119/456
f 96/96/457 98/98/457 115/115/457
f 115/115/458 98/98/458 117/117/458
f 94/94/459 96/96/459 113/113/459
f 113/113/460 96/96/460 115/115/460
f 92/92/461 94/94/461 111/111/461
f 111/111/462 94/94/462 113/113/462
f 90/90/463 92/92/463 109/109/463
f 109/109/464 92/92/464 111/111/464
f 87/87/465 90/90/465 108/108/465
f 108/108/466 90/90/466 109/109/466
f 219/219/467 51/51/467 99/99/467
f 99/99/468 51/51/468 101/101/468
f 248/248/469 249/249/469 263/263/469
f 263/263/470 249/249/470 262/262/470
f 249/249/471 64/64/471 262/262/471
f 262/262/472 64/64/472 62/62/472
f 65/65/473 250/250/473 63/63/473
f 63/63/474 250/250/474 264/264/474
f 250/250/475 251/251/475 264/264/475
f 264/264/476 251/251/476 265/265/476
f 251/251/477 252/252/477 265/265/477
f 265/265/478 252/252/478 34/34/478
f 252/252/479 253/253/479 34/34/479
f 34/34/480 253/253/480 31/31/480
f 81/81/481 224/224/481 79/79/481
f 79/79/482 224/224/482 226/226/482
f 77/77/483 228/228/483 75/75/483
f 75/75/484 228/228/484 230/230/484
f 224/224/485 81/81/485 222/222/485
f 222/222/486 81/81/486 83/83/486
f 228/228/487 77/77/487 226/226/487
f 226/226/488 77/77/488 79/79/488
f 83/83/489 85/85/489 222/222/489
f 222/222/490 85/85/490 220/220/490
f 259/259/491 261/261/491 260/260/491
f 240/240/492 259/259/492 239/239/492
f 217/217/493 216/216/493 263/263/493
f 216/216/494 214/214/494 247/247/494
f 214/214/495 213/213/495 258/258/495
f 261/261/496 234/234/496 235/235/496
f 213/213/497 242/242/497 243/243/497
f 253/253/498 32/32/498 31/31/498
f 50/50/499 33/33/499 32/32/499
f 51/51/500 103/103/500 101/101/500
f 103/103/501 51/51/501 50/50/501
f 102/102/502 104/104/502 121/121/502
f 216/216/503 248/248/503 263/263/503
f 248/248/504 216/216/504 247/247/504
f 66/66/505 234/234/505 67/67/505
f 40/40/506 265/265/506 38/38/506
f 44/44/507 264/264/507 42/42/507
f 229/229/508 93/93/508 231/231/508
f 225/225/509 95/95/509 227/227/509
f 265/265/510 36/36/510 38/38/510
f 93/93/511 233/233/511 231/231/511
f 71/71/512 73/73/512 232/232/512
f 95/95/513 229/229/513 227/227/513
f 229/229/514 95/95/514 93/93/514
f 97/97/515 225/225/515 223/223/515
f 225/225/516 97/97/516 95/95/516
f 233/233/517 93/93/517 91/91/517
f 221/221/518 97/97/518 223/223/518
f 221/221/519 219/219/519 99/99/519
f 97/97/520 221/221/520 99/99/520
f 36/36/521 265/265/521 34/34/521
f 264/264/522 40/40/522 42/42/522
f 40/40/523 264/264/523 265/265/523
f 63/63/524 44/44/524 46/46/524
f 44/44/525 63/63/525 264/264/525
f 48/48/526 63/63/526 46/46/526
f 266/266/527 267/267/527 268/268/527
f 269/269/528 266/266/528 268/268/528
f 269/269/529 268/268/529 270/270/529
f 271/271/530 269/269/530 270/270/530
f 271/271/531 270/270/531 272/272/531
f 273/273/532 271/271/532 272/272/532
f 273/273/533 272/272/533 274/274/533
f 275/275/534 273/273/534 274/274/534
f 275/275/535 274/274/535 276/276/535
f 277/277/536 275/275/536 276/276/536
f 277/277/537 276/276/537 278/278/537
f 279/279/538 277/277/538 278/278/538
f 279/279/539 278/278/539 280/280/539
f 281/281/540 279/279/540 280/280/540
f 281/281/541 280/280/541 282/282/541
f 283/283/542 281/281/542 282/282/542
f 283/283/543 282/282/543 284/284/543
f 285/285/544 283/283/544 284/284/544
f 285/285/545 284/284/545 286/286/545
f 287/287/546 285/285/546 286/286/546
f 287/287/547 286/286/547 288/288/547
f 266/266/548 287/287/548 288/288/548
f 266/266/549 288/288/549 289/289/549
f 290/290/550 266/266/550 289/289/550
f 290/290/551 289/289/551 291/291/551
f 292/292/552 290/290/552 291/291/552
f 292/292/553 291/291/553 293/293/553
f 294/294/554 292/292/554 293/293/554
f 294/294/555 293/293/555 295/295/555
f 296/296/556 294/294/556 295/295/556
f 296/296/557 295/295/557 297/297/557
f 298/298/558 296/296/558 297/297/558
f 298/298/559 297/297/559 278/278/559
f 299/299/560 298/298/560 278/278/560
f 299/299/561 278/278/561 300/300/561
f 270/270/562 268/268/562 301/301/562
f 301/301/563 268/268/563 267/267/563
f 272/272/564 270/270/564 302/302/564
f 302/302/565 270/270/565 301/301/565
f 274/274/566 272/272/566 303/303/566
f 303/303/567 272/272/567 302/302/567
f 276/276/568 274/274/568 300/300/568
f 300/300/569 274/274/569 303/303/569
f 301/301/570 267/267/570 304/304/570
f 304/304/571 267/267/571 305/305/571
f 302/306/572 301/307/572 306/308/572
f 306/308/573 301/307/573 304/309/573
f 303/310/574 302/311/574 307/312/574
f 307/312/575 302/311/575 306/313/575
f 300/314/576 303/315/576 299/316/576
f 299/316/577 303/315/577 307/317/577
f 304/304/578 305/305/578 292/292/578
f 292/292/579 305/305/579 290/290/579
f 306/308/580 304/309/580 294/318/580
f 294/318/581 304/309/581 292/319/581
f 307/312/582 306/313/582 296/320/582
f 296/320/583 306/313/583 294/321/583
f 299/316/584 307/317/584 298/322/584
f 298/322/585 307/317/585 296/323/585
f 291/291/586 289/289/586 286/286/586
f 286/286/587 289/289/587 288/288/587
f 293/293/588 291/291/588 284/284/588
f 284/284/589 291/291/589 286/286/589
f 295/295/590 293/293/590 282/282/590
f 282/282/591 293/293/591 284/284/591
f 285/285/592 287/287/592 271/271/592
f 271/271/593 287/287/593 269/269/593
f 283/283/594 285/285/594 273/273/594
f 273/273/595 285/285/595 271/271/595
f 281/281/596 283/283/596 275/275/596
f 275/275/597 283/283/597 273/273/597
f 279/279/598 281/281/598 277/277/598
f 277/277/599 281/281/599 275/275/599
f 282/282/600 280/280/600 295/295/600
f 295/295/601 280/280/601 297/297/601
f 278/278/602 276/276/602 300/300/602
f 266/266/603 305/305/603 267/267/603
f 266/266/604 290/290/604 305/305/604
f 278/278/605 297/297/605 280/280/605
f 266/266/606 269/269/606 287/287/606
f 308/324/607 309/325/607 310/326/607
f 311/327/608 308/324/608 310/326/608
f 311/327/529 310/326/529 312/328/529
f 313/329/530 311/327/530 312/328/530
f 313/329/531 312/328/531 314/330/531
f 315/331/609 313/329/609 314/330/609
f 315/331/533 314/330/533 316/332/533
f 317/333/610 315/331/610 316/332/610
f 317/333/611 316/332/611 318/334/611
f 319/335/536 317/333/536 318/334/536
f 319/335/612 318/334/612 320/336/612
f 321/337/613 319/335/613 320/336/613
f 321/337/614 320/336/614 322/338/614
f 323/339/615 321/337/615 322/338/615
f 323/339/541 322/338/541 324/340/541
f 325/341/616 323/339/616 324/340/616
f 325/341/617 324/340/617 326/342/617
f 327/343/544 325/341/544 326/342/544
f 327/343/618 326/342/618 328/344/618
f 329/345/546 327/343/546 328/344/546
f 329/345/547 328/344/547 330/346/547
f 308/324/548 329/345/548 330/346/548
f 308/324/549 330/346/549 331/347/549
f 332/348/619 308/324/619 331/347/619
f 332/348/551 331/347/551 333/349/551
f 334/350/552 332/348/552 333/349/552
f 334/350/553 333/349/553 335/351/553
f 336/352/554 334/350/554 335/351/554
f 336/352/555 335/351/555 337/353/555
f 338/354/556 336/352/556 337/353/556
f 338/354/557 337/353/557 339/355/557
f 340/356/558 338/354/558 339/355/558
f 340/356/620 339/355/620 320/336/620
f 341/357/621 340/356/621 320/336/621
f 341/357/622 320/336/622 342/358/622
f 343/359/623 341/357/623 342/358/623
f 343/359/624 342/358/624 344/360/624
f 312/328/625 310/326/625 345/361/625
f 345/361/626 310/326/626 309/325/626
f 314/330/627 312/328/627 346/362/627
f 346/362/565 312/328/565 345/361/565
f 316/332/628 314/330/628 344/363/628
f 344/363/629 314/330/629 346/362/629
f 318/334/630 316/332/630 342/358/630
f 342/358/631 316/332/631 344/363/631
f 345/361/632 309/325/632 347/364/632
f 347/364/633 309/325/633 348/365/633
f 346/366/634 345/361/634 349/367/634
f 349/367/635 345/361/635 347/364/635
f 344/368/636 346/369/636 343/359/636
f 343/359/637 346/369/637 349/370/637
f 347/364/638 348/365/638 334/350/638
f 334/350/639 348/365/639 332/348/639
f 349/367/640 347/364/640 336/371/640
f 336/371/581 347/364/581 334/350/581
f 343/359/641 349/370/641 338/372/641
f 338/372/583 349/370/583 336/373/583
f 341/357/642 343/359/642 340/356/642
f 340/356/643 343/359/643 338/374/643
f 333/349/644 331/347/644 328/344/644
f 328/344/645 331/347/645 330/346/645
f 335/351/588 333/349/588 326/342/588
f 326/342/589 333/349/589 328/344/589
f 337/353/646 335/351/646 324/340/646
f 324/340/591 335/351/591 326/342/591
f 327/343/647 329/345/647 313/329/647
f 313/329/593 329/345/593 311/327/593
f 325/341/648 327/343/648 315/331/648
f 315/331/595 327/343/595 313/329/595
f 323/339/596 325/341/596 317/333/596
f 317/333/597 325/341/597 315/331/597
f 321/337/649 323/339/649 319/335/649
f 319/335/599 323/339/599 317/333/599
f 324/340/650 322/338/650 337/353/650
f 337/353/651 322/338/651 339/355/651
f 320/336/652 318/334/652 342/358/652
f 308/324/603 348/365/603 309/325/603
f 308/324/653 332/348/653 348/365/653
f 320/336/654 339/355/654 322/338/654
f 308/324/606 311/327/606 329/345/606
